-- Merging decision tree log ---
application
INJECTED from /Users/zapram/Work/Projects/Mobile/doctor_test/android/app/src/main/AndroidManifest.xml:3:4-33:19
MERGED from [:firebase_auth] /Users/zapram/Work/Projects/Mobile/doctor_test/build/firebase_auth/intermediates/merged_manifest/debug/AndroidManifest.xml:9:5-15:19
MERGED from [:firebase_auth] /Users/zapram/Work/Projects/Mobile/doctor_test/build/firebase_auth/intermediates/merged_manifest/debug/AndroidManifest.xml:9:5-15:19
MERGED from [:firebase_storage] /Users/zapram/Work/Projects/Mobile/doctor_test/build/firebase_storage/intermediates/merged_manifest/debug/AndroidManifest.xml:9:5-15:19
MERGED from [:firebase_storage] /Users/zapram/Work/Projects/Mobile/doctor_test/build/firebase_storage/intermediates/merged_manifest/debug/AndroidManifest.xml:9:5-15:19
MERGED from [:cloud_firestore] /Users/zapram/Work/Projects/Mobile/doctor_test/build/cloud_firestore/intermediates/merged_manifest/debug/AndroidManifest.xml:9:5-15:19
MERGED from [:cloud_firestore] /Users/zapram/Work/Projects/Mobile/doctor_test/build/cloud_firestore/intermediates/merged_manifest/debug/AndroidManifest.xml:9:5-15:19
MERGED from [:firebase_core] /Users/zapram/Work/Projects/Mobile/doctor_test/build/firebase_core/intermediates/merged_manifest/debug/AndroidManifest.xml:9:5-15:19
MERGED from [:firebase_core] /Users/zapram/Work/Projects/Mobile/doctor_test/build/firebase_core/intermediates/merged_manifest/debug/AndroidManifest.xml:9:5-15:19
MERGED from [:image_picker_android] /Users/zapram/Work/Projects/Mobile/doctor_test/build/image_picker_android/intermediates/merged_manifest/debug/AndroidManifest.xml:9:5-19:19
MERGED from [:image_picker_android] /Users/zapram/Work/Projects/Mobile/doctor_test/build/image_picker_android/intermediates/merged_manifest/debug/AndroidManifest.xml:9:5-19:19
MERGED from [androidx.window:window:1.0.0-beta04] /Users/zapram/.gradle/caches/transforms-3/542a859793ec57d6a4d40865c7efc6d9/transformed/jetified-window-1.0.0-beta04/AndroidManifest.xml:24:5-31:19
MERGED from [androidx.window:window:1.0.0-beta04] /Users/zapram/.gradle/caches/transforms-3/542a859793ec57d6a4d40865c7efc6d9/transformed/jetified-window-1.0.0-beta04/AndroidManifest.xml:24:5-31:19
MERGED from [com.google.firebase:firebase-analytics:21.2.0] /Users/zapram/.gradle/caches/transforms-3/8a03f66f6c9a9d02bbbc0f87c44d31b1/transformed/jetified-firebase-analytics-21.2.0/AndroidManifest.xml:7:5-20
MERGED from [com.google.firebase:firebase-analytics:21.2.0] /Users/zapram/.gradle/caches/transforms-3/8a03f66f6c9a9d02bbbc0f87c44d31b1/transformed/jetified-firebase-analytics-21.2.0/AndroidManifest.xml:7:5-20
MERGED from [com.google.firebase:firebase-auth:21.1.0] /Users/zapram/.gradle/caches/transforms-3/0548e507d3019ac84ce4969b57803f45/transformed/jetified-firebase-auth-21.1.0/AndroidManifest.xml:26:5-71:19
MERGED from [com.google.firebase:firebase-auth:21.1.0] /Users/zapram/.gradle/caches/transforms-3/0548e507d3019ac84ce4969b57803f45/transformed/jetified-firebase-auth-21.1.0/AndroidManifest.xml:26:5-71:19
MERGED from [com.google.firebase:firebase-firestore:24.4.1] /Users/zapram/.gradle/caches/transforms-3/c2814ab600cd7ad8abb3930813a7dae1/transformed/jetified-firebase-firestore-24.4.1/AndroidManifest.xml:15:5-23:19
MERGED from [com.google.firebase:firebase-firestore:24.4.1] /Users/zapram/.gradle/caches/transforms-3/c2814ab600cd7ad8abb3930813a7dae1/transformed/jetified-firebase-firestore-24.4.1/AndroidManifest.xml:15:5-23:19
MERGED from [com.google.firebase:firebase-storage:20.1.0] /Users/zapram/.gradle/caches/transforms-3/0da25f878ca7fc72a1a3e4059e81557e/transformed/jetified-firebase-storage-20.1.0/AndroidManifest.xml:28:5-36:19
MERGED from [com.google.firebase:firebase-storage:20.1.0] /Users/zapram/.gradle/caches/transforms-3/0da25f878ca7fc72a1a3e4059e81557e/transformed/jetified-firebase-storage-20.1.0/AndroidManifest.xml:28:5-36:19
MERGED from [com.google.android.gms:play-services-measurement-api:21.2.0] /Users/zapram/.gradle/caches/transforms-3/bfd20290ff5d39e38453adc1ae5698f7/transformed/jetified-play-services-measurement-api-21.2.0/AndroidManifest.xml:27:5-35:19
MERGED from [com.google.android.gms:play-services-measurement-api:21.2.0] /Users/zapram/.gradle/caches/transforms-3/bfd20290ff5d39e38453adc1ae5698f7/transformed/jetified-play-services-measurement-api-21.2.0/AndroidManifest.xml:27:5-35:19
MERGED from [com.google.firebase:firebase-auth-interop:20.0.0] /Users/zapram/.gradle/caches/transforms-3/89ba8e05a34cf734bca3914f66f9a9fb/transformed/jetified-firebase-auth-interop-20.0.0/AndroidManifest.xml:7:5-8:19
MERGED from [com.google.firebase:firebase-auth-interop:20.0.0] /Users/zapram/.gradle/caches/transforms-3/89ba8e05a34cf734bca3914f66f9a9fb/transformed/jetified-firebase-auth-interop-20.0.0/AndroidManifest.xml:7:5-8:19
MERGED from [com.google.firebase:firebase-appcheck-interop:16.1.0] /Users/zapram/.gradle/caches/transforms-3/9f3a6c99108e58509d099405466dc822/transformed/jetified-firebase-appcheck-interop-16.1.0/AndroidManifest.xml:23:5-20
MERGED from [com.google.firebase:firebase-appcheck-interop:16.1.0] /Users/zapram/.gradle/caches/transforms-3/9f3a6c99108e58509d099405466dc822/transformed/jetified-firebase-appcheck-interop-16.1.0/AndroidManifest.xml:23:5-20
MERGED from [com.google.firebase:firebase-installations:17.1.0] /Users/zapram/.gradle/caches/transforms-3/3fe9d54d7b663dbec51ad86b1763f50a/transformed/jetified-firebase-installations-17.1.0/AndroidManifest.xml:13:5-21:19
MERGED from [com.google.firebase:firebase-installations:17.1.0] /Users/zapram/.gradle/caches/transforms-3/3fe9d54d7b663dbec51ad86b1763f50a/transformed/jetified-firebase-installations-17.1.0/AndroidManifest.xml:13:5-21:19
MERGED from [com.google.firebase:firebase-common:20.2.0] /Users/zapram/.gradle/caches/transforms-3/c1f7cd0e68ddf89c76a753ac7fd1a66c/transformed/jetified-firebase-common-20.2.0/AndroidManifest.xml:24:5-37:19
MERGED from [com.google.firebase:firebase-common:20.2.0] /Users/zapram/.gradle/caches/transforms-3/c1f7cd0e68ddf89c76a753ac7fd1a66c/transformed/jetified-firebase-common-20.2.0/AndroidManifest.xml:24:5-37:19
MERGED from [com.google.android.gms:play-services-auth:20.4.0] /Users/zapram/.gradle/caches/transforms-3/13c11db9378fe5d4a5611e5dfad2a7a1/transformed/jetified-play-services-auth-20.4.0/AndroidManifest.xml:22:5-38:19
MERGED from [com.google.android.gms:play-services-auth:20.4.0] /Users/zapram/.gradle/caches/transforms-3/13c11db9378fe5d4a5611e5dfad2a7a1/transformed/jetified-play-services-auth-20.4.0/AndroidManifest.xml:22:5-38:19
MERGED from [com.google.android.gms:play-services-measurement:21.2.0] /Users/zapram/.gradle/caches/transforms-3/5ec3faad4c67c5d02d41a8d7d7f45ea7/transformed/jetified-play-services-measurement-21.2.0/AndroidManifest.xml:28:5-44:19
MERGED from [com.google.android.gms:play-services-measurement:21.2.0] /Users/zapram/.gradle/caches/transforms-3/5ec3faad4c67c5d02d41a8d7d7f45ea7/transformed/jetified-play-services-measurement-21.2.0/AndroidManifest.xml:28:5-44:19
MERGED from [com.google.android.gms:play-services-measurement-sdk:21.2.0] /Users/zapram/.gradle/caches/transforms-3/727d4be4f040e1688230683f0cc8cd46/transformed/jetified-play-services-measurement-sdk-21.2.0/AndroidManifest.xml:22:5-23:19
MERGED from [com.google.android.gms:play-services-measurement-sdk:21.2.0] /Users/zapram/.gradle/caches/transforms-3/727d4be4f040e1688230683f0cc8cd46/transformed/jetified-play-services-measurement-sdk-21.2.0/AndroidManifest.xml:22:5-23:19
MERGED from [com.google.android.gms:play-services-safetynet:17.0.0] /Users/zapram/.gradle/caches/transforms-3/6fc382fce3370b231ba05fbc8b124f61/transformed/jetified-play-services-safetynet-17.0.0/AndroidManifest.xml:22:5-20
MERGED from [com.google.android.gms:play-services-safetynet:17.0.0] /Users/zapram/.gradle/caches/transforms-3/6fc382fce3370b231ba05fbc8b124f61/transformed/jetified-play-services-safetynet-17.0.0/AndroidManifest.xml:22:5-20
MERGED from [com.google.android.gms:play-services-fido:19.0.0] /Users/zapram/.gradle/caches/transforms-3/15429486c2a95aa33d4234da5fa47db0/transformed/jetified-play-services-fido-19.0.0/AndroidManifest.xml:7:5-8:19
MERGED from [com.google.android.gms:play-services-fido:19.0.0] /Users/zapram/.gradle/caches/transforms-3/15429486c2a95aa33d4234da5fa47db0/transformed/jetified-play-services-fido-19.0.0/AndroidManifest.xml:7:5-8:19
MERGED from [com.google.android.gms:play-services-base:18.0.1] /Users/zapram/.gradle/caches/transforms-3/19fea4fb28dedd992824e13cc158e7a1/transformed/jetified-play-services-base-18.0.1/AndroidManifest.xml:19:5-23:19
MERGED from [com.google.android.gms:play-services-base:18.0.1] /Users/zapram/.gradle/caches/transforms-3/19fea4fb28dedd992824e13cc158e7a1/transformed/jetified-play-services-base-18.0.1/AndroidManifest.xml:19:5-23:19
MERGED from [com.google.android.gms:play-services-tasks:18.0.1] /Users/zapram/.gradle/caches/transforms-3/0eca67a449d06f1154e3d0c5a54f4038/transformed/jetified-play-services-tasks-18.0.1/AndroidManifest.xml:5:5-20
MERGED from [com.google.android.gms:play-services-tasks:18.0.1] /Users/zapram/.gradle/caches/transforms-3/0eca67a449d06f1154e3d0c5a54f4038/transformed/jetified-play-services-tasks-18.0.1/AndroidManifest.xml:5:5-20
MERGED from [com.google.android.gms:play-services-measurement-impl:21.2.0] /Users/zapram/.gradle/caches/transforms-3/ed46e731aa84ba74e4900038bc2b3fc2/transformed/jetified-play-services-measurement-impl-21.2.0/AndroidManifest.xml:29:5-30:19
MERGED from [com.google.android.gms:play-services-measurement-impl:21.2.0] /Users/zapram/.gradle/caches/transforms-3/ed46e731aa84ba74e4900038bc2b3fc2/transformed/jetified-play-services-measurement-impl-21.2.0/AndroidManifest.xml:29:5-30:19
MERGED from [com.google.android.gms:play-services-ads-identifier:18.0.0] /Users/zapram/.gradle/caches/transforms-3/3df6ed1d9bed9e9b8d571c9997f676bd/transformed/jetified-play-services-ads-identifier-18.0.0/AndroidManifest.xml:25:5-20
MERGED from [com.google.android.gms:play-services-ads-identifier:18.0.0] /Users/zapram/.gradle/caches/transforms-3/3df6ed1d9bed9e9b8d571c9997f676bd/transformed/jetified-play-services-ads-identifier-18.0.0/AndroidManifest.xml:25:5-20
MERGED from [com.google.android.gms:play-services-measurement-base:21.2.0] /Users/zapram/.gradle/caches/transforms-3/dbc574952166167828087e3913dcd43e/transformed/jetified-play-services-measurement-base-21.2.0/AndroidManifest.xml:7:5-20
MERGED from [com.google.android.gms:play-services-measurement-base:21.2.0] /Users/zapram/.gradle/caches/transforms-3/dbc574952166167828087e3913dcd43e/transformed/jetified-play-services-measurement-base-21.2.0/AndroidManifest.xml:7:5-20
MERGED from [com.google.android.gms:play-services-stats:17.0.2] /Users/zapram/.gradle/caches/transforms-3/ee17f5ab6716e8f01f942d3248d0f851/transformed/jetified-play-services-stats-17.0.2/AndroidManifest.xml:7:5-20
MERGED from [com.google.android.gms:play-services-stats:17.0.2] /Users/zapram/.gradle/caches/transforms-3/ee17f5ab6716e8f01f942d3248d0f851/transformed/jetified-play-services-stats-17.0.2/AndroidManifest.xml:7:5-20
MERGED from [com.google.firebase:firebase-measurement-connector:19.0.0] /Users/zapram/.gradle/caches/transforms-3/8595d92ec56dfc0c05e001ba31fa19c4/transformed/jetified-firebase-measurement-connector-19.0.0/AndroidManifest.xml:22:5-23:19
MERGED from [com.google.firebase:firebase-measurement-connector:19.0.0] /Users/zapram/.gradle/caches/transforms-3/8595d92ec56dfc0c05e001ba31fa19c4/transformed/jetified-firebase-measurement-connector-19.0.0/AndroidManifest.xml:22:5-23:19
MERGED from [com.google.android.gms:play-services-basement:18.1.0] /Users/zapram/.gradle/caches/transforms-3/3ee0f8915dc9bf42c60f3eef0b7bd28a/transformed/jetified-play-services-basement-18.1.0/AndroidManifest.xml:20:5-24:19
MERGED from [com.google.android.gms:play-services-basement:18.1.0] /Users/zapram/.gradle/caches/transforms-3/3ee0f8915dc9bf42c60f3eef0b7bd28a/transformed/jetified-play-services-basement-18.1.0/AndroidManifest.xml:20:5-24:19
MERGED from [androidx.core:core:1.8.0] /Users/zapram/.gradle/caches/transforms-3/0ce731f8c62e88af9af421907435d7da/transformed/core-1.8.0/AndroidManifest.xml:24:5-89
MERGED from [androidx.core:core:1.8.0] /Users/zapram/.gradle/caches/transforms-3/0ce731f8c62e88af9af421907435d7da/transformed/core-1.8.0/AndroidManifest.xml:24:5-89
MERGED from [androidx.versionedparcelable:versionedparcelable:1.1.1] /Users/zapram/.gradle/caches/transforms-3/cfaa035a43a363ad38f5365ab0b90d5a/transformed/versionedparcelable-1.1.1/AndroidManifest.xml:24:5-25:19
MERGED from [androidx.versionedparcelable:versionedparcelable:1.1.1] /Users/zapram/.gradle/caches/transforms-3/cfaa035a43a363ad38f5365ab0b90d5a/transformed/versionedparcelable-1.1.1/AndroidManifest.xml:24:5-25:19
	android:appComponentFactory
		ADDED from [androidx.core:core:1.8.0] /Users/zapram/.gradle/caches/transforms-3/0ce731f8c62e88af9af421907435d7da/transformed/core-1.8.0/AndroidManifest.xml:24:18-86
	android:name
		INJECTED from /Users/zapram/Work/Projects/Mobile/doctor_test/android/app/src/main/AndroidManifest.xml
manifest
ADDED from /Users/zapram/Work/Projects/Mobile/doctor_test/android/app/src/main/AndroidManifest.xml:1:1-34:12
INJECTED from /Users/zapram/Work/Projects/Mobile/doctor_test/android/app/src/main/AndroidManifest.xml:1:1-34:12
INJECTED from /Users/zapram/Work/Projects/Mobile/doctor_test/android/app/src/main/AndroidManifest.xml:1:1-34:12
INJECTED from /Users/zapram/Work/Projects/Mobile/doctor_test/android/app/src/main/AndroidManifest.xml:1:1-34:12
MERGED from /Users/zapram/Work/Projects/Mobile/doctor_test/android/app/src/main/AndroidManifest.xml:1:1-34:12
MERGED from [:shared_preferences_android] /Users/zapram/Work/Projects/Mobile/doctor_test/build/shared_preferences_android/intermediates/merged_manifest/debug/AndroidManifest.xml:2:1-9:12
MERGED from [:firebase_auth] /Users/zapram/Work/Projects/Mobile/doctor_test/build/firebase_auth/intermediates/merged_manifest/debug/AndroidManifest.xml:2:1-17:12
MERGED from [:firebase_storage] /Users/zapram/Work/Projects/Mobile/doctor_test/build/firebase_storage/intermediates/merged_manifest/debug/AndroidManifest.xml:2:1-17:12
MERGED from [:cloud_firestore] /Users/zapram/Work/Projects/Mobile/doctor_test/build/cloud_firestore/intermediates/merged_manifest/debug/AndroidManifest.xml:2:1-17:12
MERGED from [:firebase_core] /Users/zapram/Work/Projects/Mobile/doctor_test/build/firebase_core/intermediates/merged_manifest/debug/AndroidManifest.xml:2:1-17:12
MERGED from [:image_picker_android] /Users/zapram/Work/Projects/Mobile/doctor_test/build/image_picker_android/intermediates/merged_manifest/debug/AndroidManifest.xml:2:1-21:12
MERGED from [:flutter_plugin_android_lifecycle] /Users/zapram/Work/Projects/Mobile/doctor_test/build/flutter_plugin_android_lifecycle/intermediates/merged_manifest/debug/AndroidManifest.xml:2:1-9:12
MERGED from [:google_sign_in_android] /Users/zapram/Work/Projects/Mobile/doctor_test/build/google_sign_in_android/intermediates/merged_manifest/debug/AndroidManifest.xml:2:1-11:12
MERGED from [androidx.multidex:multidex:2.0.0] /Users/zapram/.gradle/caches/transforms-3/60455f47848b88c03b916134aaa9223d/transformed/multidex-2.0.0/AndroidManifest.xml:17:1-22:12
MERGED from [androidx.window:window-java:1.0.0-beta04] /Users/zapram/.gradle/caches/transforms-3/e1f5bf00836c889852a9a2014464d260/transformed/jetified-window-java-1.0.0-beta04/AndroidManifest.xml:17:1-23:12
MERGED from [androidx.window:window:1.0.0-beta04] /Users/zapram/.gradle/caches/transforms-3/542a859793ec57d6a4d40865c7efc6d9/transformed/jetified-window-1.0.0-beta04/AndroidManifest.xml:17:1-33:12
MERGED from [com.google.firebase:firebase-analytics:21.2.0] /Users/zapram/.gradle/caches/transforms-3/8a03f66f6c9a9d02bbbc0f87c44d31b1/transformed/jetified-firebase-analytics-21.2.0/AndroidManifest.xml:2:1-9:12
MERGED from [com.google.firebase:firebase-auth:21.1.0] /Users/zapram/.gradle/caches/transforms-3/0548e507d3019ac84ce4969b57803f45/transformed/jetified-firebase-auth-21.1.0/AndroidManifest.xml:17:1-73:12
MERGED from [com.google.firebase:firebase-firestore:24.4.1] /Users/zapram/.gradle/caches/transforms-3/c2814ab600cd7ad8abb3930813a7dae1/transformed/jetified-firebase-firestore-24.4.1/AndroidManifest.xml:2:1-25:12
MERGED from [com.google.firebase:firebase-storage:20.1.0] /Users/zapram/.gradle/caches/transforms-3/0da25f878ca7fc72a1a3e4059e81557e/transformed/jetified-firebase-storage-20.1.0/AndroidManifest.xml:15:1-38:12
MERGED from [com.google.android.gms:play-services-measurement-api:21.2.0] /Users/zapram/.gradle/caches/transforms-3/bfd20290ff5d39e38453adc1ae5698f7/transformed/jetified-play-services-measurement-api-21.2.0/AndroidManifest.xml:17:1-37:12
MERGED from [com.google.firebase:firebase-auth-interop:20.0.0] /Users/zapram/.gradle/caches/transforms-3/89ba8e05a34cf734bca3914f66f9a9fb/transformed/jetified-firebase-auth-interop-20.0.0/AndroidManifest.xml:2:1-10:12
MERGED from [com.google.firebase:firebase-appcheck-interop:16.1.0] /Users/zapram/.gradle/caches/transforms-3/9f3a6c99108e58509d099405466dc822/transformed/jetified-firebase-appcheck-interop-16.1.0/AndroidManifest.xml:15:1-25:12
MERGED from [com.google.firebase:firebase-installations:17.1.0] /Users/zapram/.gradle/caches/transforms-3/3fe9d54d7b663dbec51ad86b1763f50a/transformed/jetified-firebase-installations-17.1.0/AndroidManifest.xml:2:1-23:12
MERGED from [com.google.firebase:firebase-common:20.2.0] /Users/zapram/.gradle/caches/transforms-3/c1f7cd0e68ddf89c76a753ac7fd1a66c/transformed/jetified-firebase-common-20.2.0/AndroidManifest.xml:15:1-39:12
MERGED from [com.google.android.gms:play-services-auth:20.4.0] /Users/zapram/.gradle/caches/transforms-3/13c11db9378fe5d4a5611e5dfad2a7a1/transformed/jetified-play-services-auth-20.4.0/AndroidManifest.xml:17:1-40:12
MERGED from [com.google.android.gms:play-services-measurement:21.2.0] /Users/zapram/.gradle/caches/transforms-3/5ec3faad4c67c5d02d41a8d7d7f45ea7/transformed/jetified-play-services-measurement-21.2.0/AndroidManifest.xml:17:1-46:12
MERGED from [com.google.android.gms:play-services-measurement-sdk:21.2.0] /Users/zapram/.gradle/caches/transforms-3/727d4be4f040e1688230683f0cc8cd46/transformed/jetified-play-services-measurement-sdk-21.2.0/AndroidManifest.xml:17:1-25:12
MERGED from [com.google.android.gms:play-services-safetynet:17.0.0] /Users/zapram/.gradle/caches/transforms-3/6fc382fce3370b231ba05fbc8b124f61/transformed/jetified-play-services-safetynet-17.0.0/AndroidManifest.xml:17:1-24:12
MERGED from [com.google.android.gms:play-services-auth-api-phone:18.0.1] /Users/zapram/.gradle/caches/transforms-3/661f963381eb53c6cea0a92b5aed8fdd/transformed/jetified-play-services-auth-api-phone-18.0.1/AndroidManifest.xml:2:1-7:12
MERGED from [com.google.android.gms:play-services-auth-base:18.0.4] /Users/zapram/.gradle/caches/transforms-3/b2ae3d9b208b4da88d8c6a5604e658eb/transformed/jetified-play-services-auth-base-18.0.4/AndroidManifest.xml:2:1-7:12
MERGED from [com.google.android.gms:play-services-fido:19.0.0] /Users/zapram/.gradle/caches/transforms-3/15429486c2a95aa33d4234da5fa47db0/transformed/jetified-play-services-fido-19.0.0/AndroidManifest.xml:2:1-10:12
MERGED from [com.google.firebase:firebase-database-collection:18.0.1] /Users/zapram/.gradle/caches/transforms-3/7c741d4936f86c00542d609dae4f68c7/transformed/jetified-firebase-database-collection-18.0.1/AndroidManifest.xml:2:1-9:12
MERGED from [com.google.android.gms:play-services-base:18.0.1] /Users/zapram/.gradle/caches/transforms-3/19fea4fb28dedd992824e13cc158e7a1/transformed/jetified-play-services-base-18.0.1/AndroidManifest.xml:16:1-24:12
MERGED from [com.google.firebase:firebase-installations-interop:17.1.0] /Users/zapram/.gradle/caches/transforms-3/8d725527be6b8ceaed4a0cb629711b97/transformed/jetified-firebase-installations-interop-17.1.0/AndroidManifest.xml:15:1-22:12
MERGED from [com.google.android.gms:play-services-tasks:18.0.1] /Users/zapram/.gradle/caches/transforms-3/0eca67a449d06f1154e3d0c5a54f4038/transformed/jetified-play-services-tasks-18.0.1/AndroidManifest.xml:2:1-6:12
MERGED from [com.google.android.gms:play-services-measurement-impl:21.2.0] /Users/zapram/.gradle/caches/transforms-3/ed46e731aa84ba74e4900038bc2b3fc2/transformed/jetified-play-services-measurement-impl-21.2.0/AndroidManifest.xml:17:1-32:12
MERGED from [com.google.android.gms:play-services-ads-identifier:18.0.0] /Users/zapram/.gradle/caches/transforms-3/3df6ed1d9bed9e9b8d571c9997f676bd/transformed/jetified-play-services-ads-identifier-18.0.0/AndroidManifest.xml:17:1-27:12
MERGED from [com.google.android.gms:play-services-measurement-sdk-api:21.2.0] /Users/zapram/.gradle/caches/transforms-3/bccbe6d122c1b8acd4eabe8df012de0c/transformed/jetified-play-services-measurement-sdk-api-21.2.0/AndroidManifest.xml:17:1-28:12
MERGED from [com.google.android.gms:play-services-measurement-base:21.2.0] /Users/zapram/.gradle/caches/transforms-3/dbc574952166167828087e3913dcd43e/transformed/jetified-play-services-measurement-base-21.2.0/AndroidManifest.xml:2:1-9:12
MERGED from [com.google.android.gms:play-services-stats:17.0.2] /Users/zapram/.gradle/caches/transforms-3/ee17f5ab6716e8f01f942d3248d0f851/transformed/jetified-play-services-stats-17.0.2/AndroidManifest.xml:2:1-9:12
MERGED from [com.google.firebase:firebase-measurement-connector:19.0.0] /Users/zapram/.gradle/caches/transforms-3/8595d92ec56dfc0c05e001ba31fa19c4/transformed/jetified-firebase-measurement-connector-19.0.0/AndroidManifest.xml:17:1-25:12
MERGED from [com.google.android.gms:play-services-basement:18.1.0] /Users/zapram/.gradle/caches/transforms-3/3ee0f8915dc9bf42c60f3eef0b7bd28a/transformed/jetified-play-services-basement-18.1.0/AndroidManifest.xml:16:1-26:12
MERGED from [androidx.fragment:fragment:1.1.0] /Users/zapram/.gradle/caches/transforms-3/32e8470ce8090ce4a3255580da6551ae/transformed/fragment-1.1.0/AndroidManifest.xml:17:1-24:12
MERGED from [androidx.browser:browser:1.4.0] /Users/zapram/.gradle/caches/transforms-3/38e30c664341fe5bfcc1d9de04582443/transformed/browser-1.4.0/AndroidManifest.xml:17:1-24:12
MERGED from [androidx.legacy:legacy-support-core-utils:1.0.0] /Users/zapram/.gradle/caches/transforms-3/6cd9fdcd6707bb0f67eabe11d5dc18ad/transformed/legacy-support-core-utils-1.0.0/AndroidManifest.xml:17:1-22:12
MERGED from [androidx.loader:loader:1.0.0] /Users/zapram/.gradle/caches/transforms-3/b21fac8fcd1472fce41ef9eb718f8588/transformed/loader-1.0.0/AndroidManifest.xml:17:1-22:12
MERGED from [androidx.viewpager:viewpager:1.0.0] /Users/zapram/.gradle/caches/transforms-3/4895f1faffe56f79fed582760f9714c7/transformed/viewpager-1.0.0/AndroidManifest.xml:17:1-22:12
MERGED from [androidx.activity:activity:1.0.0] /Users/zapram/.gradle/caches/transforms-3/bbe159a6798c7d8a5fe6d4d0f6b92062/transformed/jetified-activity-1.0.0/AndroidManifest.xml:17:1-24:12
MERGED from [androidx.customview:customview:1.0.0] /Users/zapram/.gradle/caches/transforms-3/9412021a32378240c21d255fd6064538/transformed/customview-1.0.0/AndroidManifest.xml:17:1-22:12
MERGED from [androidx.core:core:1.8.0] /Users/zapram/.gradle/caches/transforms-3/0ce731f8c62e88af9af421907435d7da/transformed/core-1.8.0/AndroidManifest.xml:17:1-26:12
MERGED from [androidx.exifinterface:exifinterface:1.3.3] /Users/zapram/.gradle/caches/transforms-3/fae8300db20a09e485ca3ced7347472e/transformed/exifinterface-1.3.3/AndroidManifest.xml:17:1-24:12
MERGED from [androidx.tracing:tracing:1.0.0] /Users/zapram/.gradle/caches/transforms-3/b3aaa08a3f58058a7d57a5e78cb8e348/transformed/jetified-tracing-1.0.0/AndroidManifest.xml:17:1-24:12
MERGED from [com.google.firebase:firebase-components:17.0.1] /Users/zapram/.gradle/caches/transforms-3/3f685350aea8d6129eaf471360285bef/transformed/jetified-firebase-components-17.0.1/AndroidManifest.xml:15:1-23:12
MERGED from [androidx.localbroadcastmanager:localbroadcastmanager:1.0.0] /Users/zapram/.gradle/caches/transforms-3/92bbcff336b1c071492380cf1ca47662/transformed/localbroadcastmanager-1.0.0/AndroidManifest.xml:17:1-22:12
MERGED from [androidx.lifecycle:lifecycle-runtime:2.3.1] /Users/zapram/.gradle/caches/transforms-3/827059b5dbdd36f4518b82e011631b76/transformed/lifecycle-runtime-2.3.1/AndroidManifest.xml:17:1-24:12
MERGED from [androidx.versionedparcelable:versionedparcelable:1.1.1] /Users/zapram/.gradle/caches/transforms-3/cfaa035a43a363ad38f5365ab0b90d5a/transformed/versionedparcelable-1.1.1/AndroidManifest.xml:17:1-27:12
MERGED from [androidx.interpolator:interpolator:1.0.0] /Users/zapram/.gradle/caches/transforms-3/0874b2ce249aebd6be8581da2886a270/transformed/interpolator-1.0.0/AndroidManifest.xml:17:1-22:12
MERGED from [androidx.savedstate:savedstate:1.0.0] /Users/zapram/.gradle/caches/transforms-3/f28fbf2b5cc15d00b9e189721d0a19db/transformed/jetified-savedstate-1.0.0/AndroidManifest.xml:17:1-24:12
MERGED from [androidx.lifecycle:lifecycle-livedata:2.0.0] /Users/zapram/.gradle/caches/transforms-3/8f6ed0e432a96c9946ce1998221ef429/transformed/lifecycle-livedata-2.0.0/AndroidManifest.xml:17:1-22:12
MERGED from [androidx.lifecycle:lifecycle-livedata-core:2.0.0] /Users/zapram/.gradle/caches/transforms-3/1dfcd597f157c8506cb9f4f998efecca/transformed/lifecycle-livedata-core-2.0.0/AndroidManifest.xml:17:1-22:12
MERGED from [androidx.arch.core:core-runtime:2.1.0] /Users/zapram/.gradle/caches/transforms-3/9633f98cacc600c55cd8e13ad9ef85d0/transformed/core-runtime-2.1.0/AndroidManifest.xml:17:1-24:12
MERGED from [androidx.documentfile:documentfile:1.0.0] /Users/zapram/.gradle/caches/transforms-3/1c4db09a62f016ff3190ccf02b09b30c/transformed/documentfile-1.0.0/AndroidManifest.xml:17:1-22:12
MERGED from [androidx.print:print:1.0.0] /Users/zapram/.gradle/caches/transforms-3/b056f379bb23e7c9af0bc16467b47b5b/transformed/print-1.0.0/AndroidManifest.xml:17:1-22:12
MERGED from [androidx.lifecycle:lifecycle-viewmodel:2.1.0] /Users/zapram/.gradle/caches/transforms-3/4347c219bb49b5517c0901825a211a72/transformed/lifecycle-viewmodel-2.1.0/AndroidManifest.xml:17:1-22:12
MERGED from [io.grpc:grpc-android:1.50.2] /Users/zapram/.gradle/caches/transforms-3/2a83207a49bc089d03b815b8ac6abc99/transformed/jetified-grpc-android-1.50.2/AndroidManifest.xml:2:1-11:12
MERGED from [androidx.annotation:annotation-experimental:1.1.0] /Users/zapram/.gradle/caches/transforms-3/f95b31beb5b7f2eb055a97bf2e6fcf0f/transformed/jetified-annotation-experimental-1.1.0/AndroidManifest.xml:17:1-24:12
MERGED from [com.google.firebase:protolite-well-known-types:18.0.0] /Users/zapram/.gradle/caches/transforms-3/8129b238d4d069661aca07bff47ad65b/transformed/jetified-protolite-well-known-types-18.0.0/AndroidManifest.xml:2:1-11:12
INJECTED from /Users/zapram/Work/Projects/Mobile/doctor_test/android/app/src/debug/AndroidManifest.xml:1:1-8:12
INJECTED from /Users/zapram/Work/Projects/Mobile/doctor_test/android/app/src/debug/AndroidManifest.xml:1:1-8:12
INJECTED from /Users/zapram/Work/Projects/Mobile/doctor_test/android/app/src/debug/AndroidManifest.xml:1:1-8:12
	package
		ADDED from /Users/zapram/Work/Projects/Mobile/doctor_test/android/app/src/main/AndroidManifest.xml:2:5-38
		INJECTED from /Users/zapram/Work/Projects/Mobile/doctor_test/android/app/src/main/AndroidManifest.xml
		INJECTED from /Users/zapram/Work/Projects/Mobile/doctor_test/android/app/src/debug/AndroidManifest.xml
	android:versionName
		INJECTED from /Users/zapram/Work/Projects/Mobile/doctor_test/android/app/src/main/AndroidManifest.xml
		ADDED from /Users/zapram/Work/Projects/Mobile/doctor_test/android/app/src/main/AndroidManifest.xml:1:1-34:12
		INJECTED from /Users/zapram/Work/Projects/Mobile/doctor_test/android/app/src/debug/AndroidManifest.xml
	android:versionCode
		INJECTED from /Users/zapram/Work/Projects/Mobile/doctor_test/android/app/src/main/AndroidManifest.xml
		ADDED from /Users/zapram/Work/Projects/Mobile/doctor_test/android/app/src/main/AndroidManifest.xml:1:1-34:12
		INJECTED from /Users/zapram/Work/Projects/Mobile/doctor_test/android/app/src/debug/AndroidManifest.xml
	xmlns:android
		ADDED from /Users/zapram/Work/Projects/Mobile/doctor_test/android/app/src/main/AndroidManifest.xml:1:11-69
uses-sdk
INJECTED from /Users/zapram/Work/Projects/Mobile/doctor_test/android/app/src/main/AndroidManifest.xml reason: use-sdk injection requested
INJECTED from /Users/zapram/Work/Projects/Mobile/doctor_test/android/app/src/main/AndroidManifest.xml
INJECTED from /Users/zapram/Work/Projects/Mobile/doctor_test/android/app/src/main/AndroidManifest.xml
MERGED from [:shared_preferences_android] /Users/zapram/Work/Projects/Mobile/doctor_test/build/shared_preferences_android/intermediates/merged_manifest/debug/AndroidManifest.xml:5:5-7:41
MERGED from [:shared_preferences_android] /Users/zapram/Work/Projects/Mobile/doctor_test/build/shared_preferences_android/intermediates/merged_manifest/debug/AndroidManifest.xml:5:5-7:41
MERGED from [:firebase_auth] /Users/zapram/Work/Projects/Mobile/doctor_test/build/firebase_auth/intermediates/merged_manifest/debug/AndroidManifest.xml:5:5-7:41
MERGED from [:firebase_auth] /Users/zapram/Work/Projects/Mobile/doctor_test/build/firebase_auth/intermediates/merged_manifest/debug/AndroidManifest.xml:5:5-7:41
MERGED from [:firebase_storage] /Users/zapram/Work/Projects/Mobile/doctor_test/build/firebase_storage/intermediates/merged_manifest/debug/AndroidManifest.xml:5:5-7:41
MERGED from [:firebase_storage] /Users/zapram/Work/Projects/Mobile/doctor_test/build/firebase_storage/intermediates/merged_manifest/debug/AndroidManifest.xml:5:5-7:41
MERGED from [:cloud_firestore] /Users/zapram/Work/Projects/Mobile/doctor_test/build/cloud_firestore/intermediates/merged_manifest/debug/AndroidManifest.xml:5:5-7:41
MERGED from [:cloud_firestore] /Users/zapram/Work/Projects/Mobile/doctor_test/build/cloud_firestore/intermediates/merged_manifest/debug/AndroidManifest.xml:5:5-7:41
MERGED from [:firebase_core] /Users/zapram/Work/Projects/Mobile/doctor_test/build/firebase_core/intermediates/merged_manifest/debug/AndroidManifest.xml:5:5-7:41
MERGED from [:firebase_core] /Users/zapram/Work/Projects/Mobile/doctor_test/build/firebase_core/intermediates/merged_manifest/debug/AndroidManifest.xml:5:5-7:41
MERGED from [:image_picker_android] /Users/zapram/Work/Projects/Mobile/doctor_test/build/image_picker_android/intermediates/merged_manifest/debug/AndroidManifest.xml:5:5-7:41
MERGED from [:image_picker_android] /Users/zapram/Work/Projects/Mobile/doctor_test/build/image_picker_android/intermediates/merged_manifest/debug/AndroidManifest.xml:5:5-7:41
MERGED from [:flutter_plugin_android_lifecycle] /Users/zapram/Work/Projects/Mobile/doctor_test/build/flutter_plugin_android_lifecycle/intermediates/merged_manifest/debug/AndroidManifest.xml:5:5-7:41
MERGED from [:flutter_plugin_android_lifecycle] /Users/zapram/Work/Projects/Mobile/doctor_test/build/flutter_plugin_android_lifecycle/intermediates/merged_manifest/debug/AndroidManifest.xml:5:5-7:41
MERGED from [:google_sign_in_android] /Users/zapram/Work/Projects/Mobile/doctor_test/build/google_sign_in_android/intermediates/merged_manifest/debug/AndroidManifest.xml:5:5-7:41
MERGED from [:google_sign_in_android] /Users/zapram/Work/Projects/Mobile/doctor_test/build/google_sign_in_android/intermediates/merged_manifest/debug/AndroidManifest.xml:5:5-7:41
MERGED from [androidx.multidex:multidex:2.0.0] /Users/zapram/.gradle/caches/transforms-3/60455f47848b88c03b916134aaa9223d/transformed/multidex-2.0.0/AndroidManifest.xml:20:5-43
MERGED from [androidx.multidex:multidex:2.0.0] /Users/zapram/.gradle/caches/transforms-3/60455f47848b88c03b916134aaa9223d/transformed/multidex-2.0.0/AndroidManifest.xml:20:5-43
MERGED from [androidx.window:window-java:1.0.0-beta04] /Users/zapram/.gradle/caches/transforms-3/e1f5bf00836c889852a9a2014464d260/transformed/jetified-window-java-1.0.0-beta04/AndroidManifest.xml:19:5-21:41
MERGED from [androidx.window:window-java:1.0.0-beta04] /Users/zapram/.gradle/caches/transforms-3/e1f5bf00836c889852a9a2014464d260/transformed/jetified-window-java-1.0.0-beta04/AndroidManifest.xml:19:5-21:41
MERGED from [androidx.window:window:1.0.0-beta04] /Users/zapram/.gradle/caches/transforms-3/542a859793ec57d6a4d40865c7efc6d9/transformed/jetified-window-1.0.0-beta04/AndroidManifest.xml:20:5-22:41
MERGED from [androidx.window:window:1.0.0-beta04] /Users/zapram/.gradle/caches/transforms-3/542a859793ec57d6a4d40865c7efc6d9/transformed/jetified-window-1.0.0-beta04/AndroidManifest.xml:20:5-22:41
MERGED from [com.google.firebase:firebase-analytics:21.2.0] /Users/zapram/.gradle/caches/transforms-3/8a03f66f6c9a9d02bbbc0f87c44d31b1/transformed/jetified-firebase-analytics-21.2.0/AndroidManifest.xml:5:5-44
MERGED from [com.google.firebase:firebase-analytics:21.2.0] /Users/zapram/.gradle/caches/transforms-3/8a03f66f6c9a9d02bbbc0f87c44d31b1/transformed/jetified-firebase-analytics-21.2.0/AndroidManifest.xml:5:5-44
MERGED from [com.google.firebase:firebase-auth:21.1.0] /Users/zapram/.gradle/caches/transforms-3/0548e507d3019ac84ce4969b57803f45/transformed/jetified-firebase-auth-21.1.0/AndroidManifest.xml:21:5-44
MERGED from [com.google.firebase:firebase-auth:21.1.0] /Users/zapram/.gradle/caches/transforms-3/0548e507d3019ac84ce4969b57803f45/transformed/jetified-firebase-auth-21.1.0/AndroidManifest.xml:21:5-44
MERGED from [com.google.firebase:firebase-firestore:24.4.1] /Users/zapram/.gradle/caches/transforms-3/c2814ab600cd7ad8abb3930813a7dae1/transformed/jetified-firebase-firestore-24.4.1/AndroidManifest.xml:6:5-8:41
MERGED from [com.google.firebase:firebase-firestore:24.4.1] /Users/zapram/.gradle/caches/transforms-3/c2814ab600cd7ad8abb3930813a7dae1/transformed/jetified-firebase-firestore-24.4.1/AndroidManifest.xml:6:5-8:41
MERGED from [com.google.firebase:firebase-storage:20.1.0] /Users/zapram/.gradle/caches/transforms-3/0da25f878ca7fc72a1a3e4059e81557e/transformed/jetified-firebase-storage-20.1.0/AndroidManifest.xml:19:5-21:41
MERGED from [com.google.firebase:firebase-storage:20.1.0] /Users/zapram/.gradle/caches/transforms-3/0da25f878ca7fc72a1a3e4059e81557e/transformed/jetified-firebase-storage-20.1.0/AndroidManifest.xml:19:5-21:41
MERGED from [com.google.android.gms:play-services-measurement-api:21.2.0] /Users/zapram/.gradle/caches/transforms-3/bfd20290ff5d39e38453adc1ae5698f7/transformed/jetified-play-services-measurement-api-21.2.0/AndroidManifest.xml:20:5-44
MERGED from [com.google.android.gms:play-services-measurement-api:21.2.0] /Users/zapram/.gradle/caches/transforms-3/bfd20290ff5d39e38453adc1ae5698f7/transformed/jetified-play-services-measurement-api-21.2.0/AndroidManifest.xml:20:5-44
MERGED from [com.google.firebase:firebase-auth-interop:20.0.0] /Users/zapram/.gradle/caches/transforms-3/89ba8e05a34cf734bca3914f66f9a9fb/transformed/jetified-firebase-auth-interop-20.0.0/AndroidManifest.xml:5:5-44
MERGED from [com.google.firebase:firebase-auth-interop:20.0.0] /Users/zapram/.gradle/caches/transforms-3/89ba8e05a34cf734bca3914f66f9a9fb/transformed/jetified-firebase-auth-interop-20.0.0/AndroidManifest.xml:5:5-44
MERGED from [com.google.firebase:firebase-appcheck-interop:16.1.0] /Users/zapram/.gradle/caches/transforms-3/9f3a6c99108e58509d099405466dc822/transformed/jetified-firebase-appcheck-interop-16.1.0/AndroidManifest.xml:18:5-20:41
MERGED from [com.google.firebase:firebase-appcheck-interop:16.1.0] /Users/zapram/.gradle/caches/transforms-3/9f3a6c99108e58509d099405466dc822/transformed/jetified-firebase-appcheck-interop-16.1.0/AndroidManifest.xml:18:5-20:41
MERGED from [com.google.firebase:firebase-installations:17.1.0] /Users/zapram/.gradle/caches/transforms-3/3fe9d54d7b663dbec51ad86b1763f50a/transformed/jetified-firebase-installations-17.1.0/AndroidManifest.xml:5:5-7:41
MERGED from [com.google.firebase:firebase-installations:17.1.0] /Users/zapram/.gradle/caches/transforms-3/3fe9d54d7b663dbec51ad86b1763f50a/transformed/jetified-firebase-installations-17.1.0/AndroidManifest.xml:5:5-7:41
MERGED from [com.google.firebase:firebase-common:20.2.0] /Users/zapram/.gradle/caches/transforms-3/c1f7cd0e68ddf89c76a753ac7fd1a66c/transformed/jetified-firebase-common-20.2.0/AndroidManifest.xml:19:5-21:41
MERGED from [com.google.firebase:firebase-common:20.2.0] /Users/zapram/.gradle/caches/transforms-3/c1f7cd0e68ddf89c76a753ac7fd1a66c/transformed/jetified-firebase-common-20.2.0/AndroidManifest.xml:19:5-21:41
MERGED from [com.google.android.gms:play-services-auth:20.4.0] /Users/zapram/.gradle/caches/transforms-3/13c11db9378fe5d4a5611e5dfad2a7a1/transformed/jetified-play-services-auth-20.4.0/AndroidManifest.xml:20:5-44
MERGED from [com.google.android.gms:play-services-auth:20.4.0] /Users/zapram/.gradle/caches/transforms-3/13c11db9378fe5d4a5611e5dfad2a7a1/transformed/jetified-play-services-auth-20.4.0/AndroidManifest.xml:20:5-44
MERGED from [com.google.android.gms:play-services-measurement:21.2.0] /Users/zapram/.gradle/caches/transforms-3/5ec3faad4c67c5d02d41a8d7d7f45ea7/transformed/jetified-play-services-measurement-21.2.0/AndroidManifest.xml:20:5-44
MERGED from [com.google.android.gms:play-services-measurement:21.2.0] /Users/zapram/.gradle/caches/transforms-3/5ec3faad4c67c5d02d41a8d7d7f45ea7/transformed/jetified-play-services-measurement-21.2.0/AndroidManifest.xml:20:5-44
MERGED from [com.google.android.gms:play-services-measurement-sdk:21.2.0] /Users/zapram/.gradle/caches/transforms-3/727d4be4f040e1688230683f0cc8cd46/transformed/jetified-play-services-measurement-sdk-21.2.0/AndroidManifest.xml:20:5-44
MERGED from [com.google.android.gms:play-services-measurement-sdk:21.2.0] /Users/zapram/.gradle/caches/transforms-3/727d4be4f040e1688230683f0cc8cd46/transformed/jetified-play-services-measurement-sdk-21.2.0/AndroidManifest.xml:20:5-44
MERGED from [com.google.android.gms:play-services-safetynet:17.0.0] /Users/zapram/.gradle/caches/transforms-3/6fc382fce3370b231ba05fbc8b124f61/transformed/jetified-play-services-safetynet-17.0.0/AndroidManifest.xml:20:5-44
MERGED from [com.google.android.gms:play-services-safetynet:17.0.0] /Users/zapram/.gradle/caches/transforms-3/6fc382fce3370b231ba05fbc8b124f61/transformed/jetified-play-services-safetynet-17.0.0/AndroidManifest.xml:20:5-44
MERGED from [com.google.android.gms:play-services-auth-api-phone:18.0.1] /Users/zapram/.gradle/caches/transforms-3/661f963381eb53c6cea0a92b5aed8fdd/transformed/jetified-play-services-auth-api-phone-18.0.1/AndroidManifest.xml:5:5-44
MERGED from [com.google.android.gms:play-services-auth-api-phone:18.0.1] /Users/zapram/.gradle/caches/transforms-3/661f963381eb53c6cea0a92b5aed8fdd/transformed/jetified-play-services-auth-api-phone-18.0.1/AndroidManifest.xml:5:5-44
MERGED from [com.google.android.gms:play-services-auth-base:18.0.4] /Users/zapram/.gradle/caches/transforms-3/b2ae3d9b208b4da88d8c6a5604e658eb/transformed/jetified-play-services-auth-base-18.0.4/AndroidManifest.xml:5:5-44
MERGED from [com.google.android.gms:play-services-auth-base:18.0.4] /Users/zapram/.gradle/caches/transforms-3/b2ae3d9b208b4da88d8c6a5604e658eb/transformed/jetified-play-services-auth-base-18.0.4/AndroidManifest.xml:5:5-44
MERGED from [com.google.android.gms:play-services-fido:19.0.0] /Users/zapram/.gradle/caches/transforms-3/15429486c2a95aa33d4234da5fa47db0/transformed/jetified-play-services-fido-19.0.0/AndroidManifest.xml:5:5-44
MERGED from [com.google.android.gms:play-services-fido:19.0.0] /Users/zapram/.gradle/caches/transforms-3/15429486c2a95aa33d4234da5fa47db0/transformed/jetified-play-services-fido-19.0.0/AndroidManifest.xml:5:5-44
MERGED from [com.google.firebase:firebase-database-collection:18.0.1] /Users/zapram/.gradle/caches/transforms-3/7c741d4936f86c00542d609dae4f68c7/transformed/jetified-firebase-database-collection-18.0.1/AndroidManifest.xml:5:5-7:41
MERGED from [com.google.firebase:firebase-database-collection:18.0.1] /Users/zapram/.gradle/caches/transforms-3/7c741d4936f86c00542d609dae4f68c7/transformed/jetified-firebase-database-collection-18.0.1/AndroidManifest.xml:5:5-7:41
MERGED from [com.google.android.gms:play-services-base:18.0.1] /Users/zapram/.gradle/caches/transforms-3/19fea4fb28dedd992824e13cc158e7a1/transformed/jetified-play-services-base-18.0.1/AndroidManifest.xml:18:5-43
MERGED from [com.google.android.gms:play-services-base:18.0.1] /Users/zapram/.gradle/caches/transforms-3/19fea4fb28dedd992824e13cc158e7a1/transformed/jetified-play-services-base-18.0.1/AndroidManifest.xml:18:5-43
MERGED from [com.google.firebase:firebase-installations-interop:17.1.0] /Users/zapram/.gradle/caches/transforms-3/8d725527be6b8ceaed4a0cb629711b97/transformed/jetified-firebase-installations-interop-17.1.0/AndroidManifest.xml:18:5-20:41
MERGED from [com.google.firebase:firebase-installations-interop:17.1.0] /Users/zapram/.gradle/caches/transforms-3/8d725527be6b8ceaed4a0cb629711b97/transformed/jetified-firebase-installations-interop-17.1.0/AndroidManifest.xml:18:5-20:41
MERGED from [com.google.android.gms:play-services-tasks:18.0.1] /Users/zapram/.gradle/caches/transforms-3/0eca67a449d06f1154e3d0c5a54f4038/transformed/jetified-play-services-tasks-18.0.1/AndroidManifest.xml:4:5-43
MERGED from [com.google.android.gms:play-services-tasks:18.0.1] /Users/zapram/.gradle/caches/transforms-3/0eca67a449d06f1154e3d0c5a54f4038/transformed/jetified-play-services-tasks-18.0.1/AndroidManifest.xml:4:5-43
MERGED from [com.google.android.gms:play-services-measurement-impl:21.2.0] /Users/zapram/.gradle/caches/transforms-3/ed46e731aa84ba74e4900038bc2b3fc2/transformed/jetified-play-services-measurement-impl-21.2.0/AndroidManifest.xml:20:5-44
MERGED from [com.google.android.gms:play-services-measurement-impl:21.2.0] /Users/zapram/.gradle/caches/transforms-3/ed46e731aa84ba74e4900038bc2b3fc2/transformed/jetified-play-services-measurement-impl-21.2.0/AndroidManifest.xml:20:5-44
MERGED from [com.google.android.gms:play-services-ads-identifier:18.0.0] /Users/zapram/.gradle/caches/transforms-3/3df6ed1d9bed9e9b8d571c9997f676bd/transformed/jetified-play-services-ads-identifier-18.0.0/AndroidManifest.xml:20:5-44
MERGED from [com.google.android.gms:play-services-ads-identifier:18.0.0] /Users/zapram/.gradle/caches/transforms-3/3df6ed1d9bed9e9b8d571c9997f676bd/transformed/jetified-play-services-ads-identifier-18.0.0/AndroidManifest.xml:20:5-44
MERGED from [com.google.android.gms:play-services-measurement-sdk-api:21.2.0] /Users/zapram/.gradle/caches/transforms-3/bccbe6d122c1b8acd4eabe8df012de0c/transformed/jetified-play-services-measurement-sdk-api-21.2.0/AndroidManifest.xml:20:5-44
MERGED from [com.google.android.gms:play-services-measurement-sdk-api:21.2.0] /Users/zapram/.gradle/caches/transforms-3/bccbe6d122c1b8acd4eabe8df012de0c/transformed/jetified-play-services-measurement-sdk-api-21.2.0/AndroidManifest.xml:20:5-44
MERGED from [com.google.android.gms:play-services-measurement-base:21.2.0] /Users/zapram/.gradle/caches/transforms-3/dbc574952166167828087e3913dcd43e/transformed/jetified-play-services-measurement-base-21.2.0/AndroidManifest.xml:5:5-44
MERGED from [com.google.android.gms:play-services-measurement-base:21.2.0] /Users/zapram/.gradle/caches/transforms-3/dbc574952166167828087e3913dcd43e/transformed/jetified-play-services-measurement-base-21.2.0/AndroidManifest.xml:5:5-44
MERGED from [com.google.android.gms:play-services-stats:17.0.2] /Users/zapram/.gradle/caches/transforms-3/ee17f5ab6716e8f01f942d3248d0f851/transformed/jetified-play-services-stats-17.0.2/AndroidManifest.xml:5:5-44
MERGED from [com.google.android.gms:play-services-stats:17.0.2] /Users/zapram/.gradle/caches/transforms-3/ee17f5ab6716e8f01f942d3248d0f851/transformed/jetified-play-services-stats-17.0.2/AndroidManifest.xml:5:5-44
MERGED from [com.google.firebase:firebase-measurement-connector:19.0.0] /Users/zapram/.gradle/caches/transforms-3/8595d92ec56dfc0c05e001ba31fa19c4/transformed/jetified-firebase-measurement-connector-19.0.0/AndroidManifest.xml:20:5-44
MERGED from [com.google.firebase:firebase-measurement-connector:19.0.0] /Users/zapram/.gradle/caches/transforms-3/8595d92ec56dfc0c05e001ba31fa19c4/transformed/jetified-firebase-measurement-connector-19.0.0/AndroidManifest.xml:20:5-44
MERGED from [com.google.android.gms:play-services-basement:18.1.0] /Users/zapram/.gradle/caches/transforms-3/3ee0f8915dc9bf42c60f3eef0b7bd28a/transformed/jetified-play-services-basement-18.1.0/AndroidManifest.xml:18:5-43
MERGED from [com.google.android.gms:play-services-basement:18.1.0] /Users/zapram/.gradle/caches/transforms-3/3ee0f8915dc9bf42c60f3eef0b7bd28a/transformed/jetified-play-services-basement-18.1.0/AndroidManifest.xml:18:5-43
MERGED from [androidx.fragment:fragment:1.1.0] /Users/zapram/.gradle/caches/transforms-3/32e8470ce8090ce4a3255580da6551ae/transformed/fragment-1.1.0/AndroidManifest.xml:20:5-22:41
MERGED from [androidx.fragment:fragment:1.1.0] /Users/zapram/.gradle/caches/transforms-3/32e8470ce8090ce4a3255580da6551ae/transformed/fragment-1.1.0/AndroidManifest.xml:20:5-22:41
MERGED from [androidx.browser:browser:1.4.0] /Users/zapram/.gradle/caches/transforms-3/38e30c664341fe5bfcc1d9de04582443/transformed/browser-1.4.0/AndroidManifest.xml:20:5-22:41
MERGED from [androidx.browser:browser:1.4.0] /Users/zapram/.gradle/caches/transforms-3/38e30c664341fe5bfcc1d9de04582443/transformed/browser-1.4.0/AndroidManifest.xml:20:5-22:41
MERGED from [androidx.legacy:legacy-support-core-utils:1.0.0] /Users/zapram/.gradle/caches/transforms-3/6cd9fdcd6707bb0f67eabe11d5dc18ad/transformed/legacy-support-core-utils-1.0.0/AndroidManifest.xml:20:5-44
MERGED from [androidx.legacy:legacy-support-core-utils:1.0.0] /Users/zapram/.gradle/caches/transforms-3/6cd9fdcd6707bb0f67eabe11d5dc18ad/transformed/legacy-support-core-utils-1.0.0/AndroidManifest.xml:20:5-44
MERGED from [androidx.loader:loader:1.0.0] /Users/zapram/.gradle/caches/transforms-3/b21fac8fcd1472fce41ef9eb718f8588/transformed/loader-1.0.0/AndroidManifest.xml:20:5-44
MERGED from [androidx.loader:loader:1.0.0] /Users/zapram/.gradle/caches/transforms-3/b21fac8fcd1472fce41ef9eb718f8588/transformed/loader-1.0.0/AndroidManifest.xml:20:5-44
MERGED from [androidx.viewpager:viewpager:1.0.0] /Users/zapram/.gradle/caches/transforms-3/4895f1faffe56f79fed582760f9714c7/transformed/viewpager-1.0.0/AndroidManifest.xml:20:5-44
MERGED from [androidx.viewpager:viewpager:1.0.0] /Users/zapram/.gradle/caches/transforms-3/4895f1faffe56f79fed582760f9714c7/transformed/viewpager-1.0.0/AndroidManifest.xml:20:5-44
MERGED from [androidx.activity:activity:1.0.0] /Users/zapram/.gradle/caches/transforms-3/bbe159a6798c7d8a5fe6d4d0f6b92062/transformed/jetified-activity-1.0.0/AndroidManifest.xml:20:5-22:41
MERGED from [androidx.activity:activity:1.0.0] /Users/zapram/.gradle/caches/transforms-3/bbe159a6798c7d8a5fe6d4d0f6b92062/transformed/jetified-activity-1.0.0/AndroidManifest.xml:20:5-22:41
MERGED from [androidx.customview:customview:1.0.0] /Users/zapram/.gradle/caches/transforms-3/9412021a32378240c21d255fd6064538/transformed/customview-1.0.0/AndroidManifest.xml:20:5-44
MERGED from [androidx.customview:customview:1.0.0] /Users/zapram/.gradle/caches/transforms-3/9412021a32378240c21d255fd6064538/transformed/customview-1.0.0/AndroidManifest.xml:20:5-44
MERGED from [androidx.core:core:1.8.0] /Users/zapram/.gradle/caches/transforms-3/0ce731f8c62e88af9af421907435d7da/transformed/core-1.8.0/AndroidManifest.xml:20:5-22:41
MERGED from [androidx.core:core:1.8.0] /Users/zapram/.gradle/caches/transforms-3/0ce731f8c62e88af9af421907435d7da/transformed/core-1.8.0/AndroidManifest.xml:20:5-22:41
MERGED from [androidx.exifinterface:exifinterface:1.3.3] /Users/zapram/.gradle/caches/transforms-3/fae8300db20a09e485ca3ced7347472e/transformed/exifinterface-1.3.3/AndroidManifest.xml:20:5-22:41
MERGED from [androidx.exifinterface:exifinterface:1.3.3] /Users/zapram/.gradle/caches/transforms-3/fae8300db20a09e485ca3ced7347472e/transformed/exifinterface-1.3.3/AndroidManifest.xml:20:5-22:41
MERGED from [androidx.tracing:tracing:1.0.0] /Users/zapram/.gradle/caches/transforms-3/b3aaa08a3f58058a7d57a5e78cb8e348/transformed/jetified-tracing-1.0.0/AndroidManifest.xml:20:5-22:41
MERGED from [androidx.tracing:tracing:1.0.0] /Users/zapram/.gradle/caches/transforms-3/b3aaa08a3f58058a7d57a5e78cb8e348/transformed/jetified-tracing-1.0.0/AndroidManifest.xml:20:5-22:41
MERGED from [com.google.firebase:firebase-components:17.0.1] /Users/zapram/.gradle/caches/transforms-3/3f685350aea8d6129eaf471360285bef/transformed/jetified-firebase-components-17.0.1/AndroidManifest.xml:19:5-21:41
MERGED from [com.google.firebase:firebase-components:17.0.1] /Users/zapram/.gradle/caches/transforms-3/3f685350aea8d6129eaf471360285bef/transformed/jetified-firebase-components-17.0.1/AndroidManifest.xml:19:5-21:41
MERGED from [androidx.localbroadcastmanager:localbroadcastmanager:1.0.0] /Users/zapram/.gradle/caches/transforms-3/92bbcff336b1c071492380cf1ca47662/transformed/localbroadcastmanager-1.0.0/AndroidManifest.xml:20:5-44
MERGED from [androidx.localbroadcastmanager:localbroadcastmanager:1.0.0] /Users/zapram/.gradle/caches/transforms-3/92bbcff336b1c071492380cf1ca47662/transformed/localbroadcastmanager-1.0.0/AndroidManifest.xml:20:5-44
MERGED from [androidx.lifecycle:lifecycle-runtime:2.3.1] /Users/zapram/.gradle/caches/transforms-3/827059b5dbdd36f4518b82e011631b76/transformed/lifecycle-runtime-2.3.1/AndroidManifest.xml:20:5-22:41
MERGED from [androidx.lifecycle:lifecycle-runtime:2.3.1] /Users/zapram/.gradle/caches/transforms-3/827059b5dbdd36f4518b82e011631b76/transformed/lifecycle-runtime-2.3.1/AndroidManifest.xml:20:5-22:41
MERGED from [androidx.versionedparcelable:versionedparcelable:1.1.1] /Users/zapram/.gradle/caches/transforms-3/cfaa035a43a363ad38f5365ab0b90d5a/transformed/versionedparcelable-1.1.1/AndroidManifest.xml:20:5-22:41
MERGED from [androidx.versionedparcelable:versionedparcelable:1.1.1] /Users/zapram/.gradle/caches/transforms-3/cfaa035a43a363ad38f5365ab0b90d5a/transformed/versionedparcelable-1.1.1/AndroidManifest.xml:20:5-22:41
MERGED from [androidx.interpolator:interpolator:1.0.0] /Users/zapram/.gradle/caches/transforms-3/0874b2ce249aebd6be8581da2886a270/transformed/interpolator-1.0.0/AndroidManifest.xml:20:5-44
MERGED from [androidx.interpolator:interpolator:1.0.0] /Users/zapram/.gradle/caches/transforms-3/0874b2ce249aebd6be8581da2886a270/transformed/interpolator-1.0.0/AndroidManifest.xml:20:5-44
MERGED from [androidx.savedstate:savedstate:1.0.0] /Users/zapram/.gradle/caches/transforms-3/f28fbf2b5cc15d00b9e189721d0a19db/transformed/jetified-savedstate-1.0.0/AndroidManifest.xml:20:5-22:41
MERGED from [androidx.savedstate:savedstate:1.0.0] /Users/zapram/.gradle/caches/transforms-3/f28fbf2b5cc15d00b9e189721d0a19db/transformed/jetified-savedstate-1.0.0/AndroidManifest.xml:20:5-22:41
MERGED from [androidx.lifecycle:lifecycle-livedata:2.0.0] /Users/zapram/.gradle/caches/transforms-3/8f6ed0e432a96c9946ce1998221ef429/transformed/lifecycle-livedata-2.0.0/AndroidManifest.xml:20:5-44
MERGED from [androidx.lifecycle:lifecycle-livedata:2.0.0] /Users/zapram/.gradle/caches/transforms-3/8f6ed0e432a96c9946ce1998221ef429/transformed/lifecycle-livedata-2.0.0/AndroidManifest.xml:20:5-44
MERGED from [androidx.lifecycle:lifecycle-livedata-core:2.0.0] /Users/zapram/.gradle/caches/transforms-3/1dfcd597f157c8506cb9f4f998efecca/transformed/lifecycle-livedata-core-2.0.0/AndroidManifest.xml:20:5-44
MERGED from [androidx.lifecycle:lifecycle-livedata-core:2.0.0] /Users/zapram/.gradle/caches/transforms-3/1dfcd597f157c8506cb9f4f998efecca/transformed/lifecycle-livedata-core-2.0.0/AndroidManifest.xml:20:5-44
MERGED from [androidx.arch.core:core-runtime:2.1.0] /Users/zapram/.gradle/caches/transforms-3/9633f98cacc600c55cd8e13ad9ef85d0/transformed/core-runtime-2.1.0/AndroidManifest.xml:20:5-22:41
MERGED from [androidx.arch.core:core-runtime:2.1.0] /Users/zapram/.gradle/caches/transforms-3/9633f98cacc600c55cd8e13ad9ef85d0/transformed/core-runtime-2.1.0/AndroidManifest.xml:20:5-22:41
MERGED from [androidx.documentfile:documentfile:1.0.0] /Users/zapram/.gradle/caches/transforms-3/1c4db09a62f016ff3190ccf02b09b30c/transformed/documentfile-1.0.0/AndroidManifest.xml:20:5-44
MERGED from [androidx.documentfile:documentfile:1.0.0] /Users/zapram/.gradle/caches/transforms-3/1c4db09a62f016ff3190ccf02b09b30c/transformed/documentfile-1.0.0/AndroidManifest.xml:20:5-44
MERGED from [androidx.print:print:1.0.0] /Users/zapram/.gradle/caches/transforms-3/b056f379bb23e7c9af0bc16467b47b5b/transformed/print-1.0.0/AndroidManifest.xml:20:5-44
MERGED from [androidx.print:print:1.0.0] /Users/zapram/.gradle/caches/transforms-3/b056f379bb23e7c9af0bc16467b47b5b/transformed/print-1.0.0/AndroidManifest.xml:20:5-44
MERGED from [androidx.lifecycle:lifecycle-viewmodel:2.1.0] /Users/zapram/.gradle/caches/transforms-3/4347c219bb49b5517c0901825a211a72/transformed/lifecycle-viewmodel-2.1.0/AndroidManifest.xml:20:5-44
MERGED from [androidx.lifecycle:lifecycle-viewmodel:2.1.0] /Users/zapram/.gradle/caches/transforms-3/4347c219bb49b5517c0901825a211a72/transformed/lifecycle-viewmodel-2.1.0/AndroidManifest.xml:20:5-44
MERGED from [io.grpc:grpc-android:1.50.2] /Users/zapram/.gradle/caches/transforms-3/2a83207a49bc089d03b815b8ac6abc99/transformed/jetified-grpc-android-1.50.2/AndroidManifest.xml:5:5-7:41
MERGED from [io.grpc:grpc-android:1.50.2] /Users/zapram/.gradle/caches/transforms-3/2a83207a49bc089d03b815b8ac6abc99/transformed/jetified-grpc-android-1.50.2/AndroidManifest.xml:5:5-7:41
MERGED from [androidx.annotation:annotation-experimental:1.1.0] /Users/zapram/.gradle/caches/transforms-3/f95b31beb5b7f2eb055a97bf2e6fcf0f/transformed/jetified-annotation-experimental-1.1.0/AndroidManifest.xml:20:5-22:41
MERGED from [androidx.annotation:annotation-experimental:1.1.0] /Users/zapram/.gradle/caches/transforms-3/f95b31beb5b7f2eb055a97bf2e6fcf0f/transformed/jetified-annotation-experimental-1.1.0/AndroidManifest.xml:20:5-22:41
MERGED from [com.google.firebase:protolite-well-known-types:18.0.0] /Users/zapram/.gradle/caches/transforms-3/8129b238d4d069661aca07bff47ad65b/transformed/jetified-protolite-well-known-types-18.0.0/AndroidManifest.xml:7:5-9:41
MERGED from [com.google.firebase:protolite-well-known-types:18.0.0] /Users/zapram/.gradle/caches/transforms-3/8129b238d4d069661aca07bff47ad65b/transformed/jetified-protolite-well-known-types-18.0.0/AndroidManifest.xml:7:5-9:41
INJECTED from /Users/zapram/Work/Projects/Mobile/doctor_test/android/app/src/debug/AndroidManifest.xml
INJECTED from /Users/zapram/Work/Projects/Mobile/doctor_test/android/app/src/debug/AndroidManifest.xml
	android:targetSdkVersion
		INJECTED from /Users/zapram/Work/Projects/Mobile/doctor_test/android/app/src/main/AndroidManifest.xml
		INJECTED from /Users/zapram/Work/Projects/Mobile/doctor_test/android/app/src/debug/AndroidManifest.xml
	android:minSdkVersion
		INJECTED from /Users/zapram/Work/Projects/Mobile/doctor_test/android/app/src/main/AndroidManifest.xml
		INJECTED from /Users/zapram/Work/Projects/Mobile/doctor_test/android/app/src/debug/AndroidManifest.xml
uses-permission#android.permission.INTERNET
ADDED from /Users/zapram/Work/Projects/Mobile/doctor_test/android/app/src/debug/AndroidManifest.xml:7:5-66
MERGED from [:google_sign_in_android] /Users/zapram/Work/Projects/Mobile/doctor_test/build/google_sign_in_android/intermediates/merged_manifest/debug/AndroidManifest.xml:9:5-67
MERGED from [:google_sign_in_android] /Users/zapram/Work/Projects/Mobile/doctor_test/build/google_sign_in_android/intermediates/merged_manifest/debug/AndroidManifest.xml:9:5-67
MERGED from [com.google.firebase:firebase-auth:21.1.0] /Users/zapram/.gradle/caches/transforms-3/0548e507d3019ac84ce4969b57803f45/transformed/jetified-firebase-auth-21.1.0/AndroidManifest.xml:23:5-67
MERGED from [com.google.firebase:firebase-auth:21.1.0] /Users/zapram/.gradle/caches/transforms-3/0548e507d3019ac84ce4969b57803f45/transformed/jetified-firebase-auth-21.1.0/AndroidManifest.xml:23:5-67
MERGED from [com.google.firebase:firebase-firestore:24.4.1] /Users/zapram/.gradle/caches/transforms-3/c2814ab600cd7ad8abb3930813a7dae1/transformed/jetified-firebase-firestore-24.4.1/AndroidManifest.xml:13:5-67
MERGED from [com.google.firebase:firebase-firestore:24.4.1] /Users/zapram/.gradle/caches/transforms-3/c2814ab600cd7ad8abb3930813a7dae1/transformed/jetified-firebase-firestore-24.4.1/AndroidManifest.xml:13:5-67
MERGED from [com.google.firebase:firebase-storage:20.1.0] /Users/zapram/.gradle/caches/transforms-3/0da25f878ca7fc72a1a3e4059e81557e/transformed/jetified-firebase-storage-20.1.0/AndroidManifest.xml:26:5-67
MERGED from [com.google.firebase:firebase-storage:20.1.0] /Users/zapram/.gradle/caches/transforms-3/0da25f878ca7fc72a1a3e4059e81557e/transformed/jetified-firebase-storage-20.1.0/AndroidManifest.xml:26:5-67
MERGED from [com.google.android.gms:play-services-measurement-api:21.2.0] /Users/zapram/.gradle/caches/transforms-3/bfd20290ff5d39e38453adc1ae5698f7/transformed/jetified-play-services-measurement-api-21.2.0/AndroidManifest.xml:22:5-67
MERGED from [com.google.android.gms:play-services-measurement-api:21.2.0] /Users/zapram/.gradle/caches/transforms-3/bfd20290ff5d39e38453adc1ae5698f7/transformed/jetified-play-services-measurement-api-21.2.0/AndroidManifest.xml:22:5-67
MERGED from [com.google.firebase:firebase-installations:17.1.0] /Users/zapram/.gradle/caches/transforms-3/3fe9d54d7b663dbec51ad86b1763f50a/transformed/jetified-firebase-installations-17.1.0/AndroidManifest.xml:10:5-67
MERGED from [com.google.firebase:firebase-installations:17.1.0] /Users/zapram/.gradle/caches/transforms-3/3fe9d54d7b663dbec51ad86b1763f50a/transformed/jetified-firebase-installations-17.1.0/AndroidManifest.xml:10:5-67
MERGED from [com.google.android.gms:play-services-measurement:21.2.0] /Users/zapram/.gradle/caches/transforms-3/5ec3faad4c67c5d02d41a8d7d7f45ea7/transformed/jetified-play-services-measurement-21.2.0/AndroidManifest.xml:23:5-67
MERGED from [com.google.android.gms:play-services-measurement:21.2.0] /Users/zapram/.gradle/caches/transforms-3/5ec3faad4c67c5d02d41a8d7d7f45ea7/transformed/jetified-play-services-measurement-21.2.0/AndroidManifest.xml:23:5-67
MERGED from [com.google.android.gms:play-services-measurement-impl:21.2.0] /Users/zapram/.gradle/caches/transforms-3/ed46e731aa84ba74e4900038bc2b3fc2/transformed/jetified-play-services-measurement-impl-21.2.0/AndroidManifest.xml:23:5-67
MERGED from [com.google.android.gms:play-services-measurement-impl:21.2.0] /Users/zapram/.gradle/caches/transforms-3/ed46e731aa84ba74e4900038bc2b3fc2/transformed/jetified-play-services-measurement-impl-21.2.0/AndroidManifest.xml:23:5-67
MERGED from [com.google.android.gms:play-services-measurement-sdk-api:21.2.0] /Users/zapram/.gradle/caches/transforms-3/bccbe6d122c1b8acd4eabe8df012de0c/transformed/jetified-play-services-measurement-sdk-api-21.2.0/AndroidManifest.xml:23:5-67
MERGED from [com.google.android.gms:play-services-measurement-sdk-api:21.2.0] /Users/zapram/.gradle/caches/transforms-3/bccbe6d122c1b8acd4eabe8df012de0c/transformed/jetified-play-services-measurement-sdk-api-21.2.0/AndroidManifest.xml:23:5-67
	android:name
		ADDED from /Users/zapram/Work/Projects/Mobile/doctor_test/android/app/src/debug/AndroidManifest.xml:7:22-64
service#com.google.firebase.components.ComponentDiscoveryService
ADDED from [:firebase_auth] /Users/zapram/Work/Projects/Mobile/doctor_test/build/firebase_auth/intermediates/merged_manifest/debug/AndroidManifest.xml:10:9-14:19
MERGED from [:firebase_storage] /Users/zapram/Work/Projects/Mobile/doctor_test/build/firebase_storage/intermediates/merged_manifest/debug/AndroidManifest.xml:10:9-14:19
MERGED from [:firebase_storage] /Users/zapram/Work/Projects/Mobile/doctor_test/build/firebase_storage/intermediates/merged_manifest/debug/AndroidManifest.xml:10:9-14:19
MERGED from [:cloud_firestore] /Users/zapram/Work/Projects/Mobile/doctor_test/build/cloud_firestore/intermediates/merged_manifest/debug/AndroidManifest.xml:10:9-14:19
MERGED from [:cloud_firestore] /Users/zapram/Work/Projects/Mobile/doctor_test/build/cloud_firestore/intermediates/merged_manifest/debug/AndroidManifest.xml:10:9-14:19
MERGED from [:firebase_core] /Users/zapram/Work/Projects/Mobile/doctor_test/build/firebase_core/intermediates/merged_manifest/debug/AndroidManifest.xml:10:9-14:19
MERGED from [:firebase_core] /Users/zapram/Work/Projects/Mobile/doctor_test/build/firebase_core/intermediates/merged_manifest/debug/AndroidManifest.xml:10:9-14:19
MERGED from [com.google.firebase:firebase-auth:21.1.0] /Users/zapram/.gradle/caches/transforms-3/0548e507d3019ac84ce4969b57803f45/transformed/jetified-firebase-auth-21.1.0/AndroidManifest.xml:64:9-70:19
MERGED from [com.google.firebase:firebase-auth:21.1.0] /Users/zapram/.gradle/caches/transforms-3/0548e507d3019ac84ce4969b57803f45/transformed/jetified-firebase-auth-21.1.0/AndroidManifest.xml:64:9-70:19
MERGED from [com.google.firebase:firebase-firestore:24.4.1] /Users/zapram/.gradle/caches/transforms-3/c2814ab600cd7ad8abb3930813a7dae1/transformed/jetified-firebase-firestore-24.4.1/AndroidManifest.xml:16:9-22:19
MERGED from [com.google.firebase:firebase-firestore:24.4.1] /Users/zapram/.gradle/caches/transforms-3/c2814ab600cd7ad8abb3930813a7dae1/transformed/jetified-firebase-firestore-24.4.1/AndroidManifest.xml:16:9-22:19
MERGED from [com.google.firebase:firebase-storage:20.1.0] /Users/zapram/.gradle/caches/transforms-3/0da25f878ca7fc72a1a3e4059e81557e/transformed/jetified-firebase-storage-20.1.0/AndroidManifest.xml:29:9-35:19
MERGED from [com.google.firebase:firebase-storage:20.1.0] /Users/zapram/.gradle/caches/transforms-3/0da25f878ca7fc72a1a3e4059e81557e/transformed/jetified-firebase-storage-20.1.0/AndroidManifest.xml:29:9-35:19
MERGED from [com.google.android.gms:play-services-measurement-api:21.2.0] /Users/zapram/.gradle/caches/transforms-3/bfd20290ff5d39e38453adc1ae5698f7/transformed/jetified-play-services-measurement-api-21.2.0/AndroidManifest.xml:28:9-34:19
MERGED from [com.google.android.gms:play-services-measurement-api:21.2.0] /Users/zapram/.gradle/caches/transforms-3/bfd20290ff5d39e38453adc1ae5698f7/transformed/jetified-play-services-measurement-api-21.2.0/AndroidManifest.xml:28:9-34:19
MERGED from [com.google.firebase:firebase-installations:17.1.0] /Users/zapram/.gradle/caches/transforms-3/3fe9d54d7b663dbec51ad86b1763f50a/transformed/jetified-firebase-installations-17.1.0/AndroidManifest.xml:14:9-20:19
MERGED from [com.google.firebase:firebase-installations:17.1.0] /Users/zapram/.gradle/caches/transforms-3/3fe9d54d7b663dbec51ad86b1763f50a/transformed/jetified-firebase-installations-17.1.0/AndroidManifest.xml:14:9-20:19
MERGED from [com.google.firebase:firebase-common:20.2.0] /Users/zapram/.gradle/caches/transforms-3/c1f7cd0e68ddf89c76a753ac7fd1a66c/transformed/jetified-firebase-common-20.2.0/AndroidManifest.xml:32:9-36:35
MERGED from [com.google.firebase:firebase-common:20.2.0] /Users/zapram/.gradle/caches/transforms-3/c1f7cd0e68ddf89c76a753ac7fd1a66c/transformed/jetified-firebase-common-20.2.0/AndroidManifest.xml:32:9-36:35
	android:exported
		ADDED from [com.google.firebase:firebase-auth:21.1.0] /Users/zapram/.gradle/caches/transforms-3/0548e507d3019ac84ce4969b57803f45/transformed/jetified-firebase-auth-21.1.0/AndroidManifest.xml:66:13-37
	tools:targetApi
		ADDED from [com.google.firebase:firebase-common:20.2.0] /Users/zapram/.gradle/caches/transforms-3/c1f7cd0e68ddf89c76a753ac7fd1a66c/transformed/jetified-firebase-common-20.2.0/AndroidManifest.xml:36:13-32
	android:directBootAware
		ADDED from [com.google.firebase:firebase-common:20.2.0] /Users/zapram/.gradle/caches/transforms-3/c1f7cd0e68ddf89c76a753ac7fd1a66c/transformed/jetified-firebase-common-20.2.0/AndroidManifest.xml:34:13-43
	android:name
		ADDED from [:firebase_auth] /Users/zapram/Work/Projects/Mobile/doctor_test/build/firebase_auth/intermediates/merged_manifest/debug/AndroidManifest.xml:10:18-89
meta-data#com.google.firebase.components:io.flutter.plugins.firebase.auth.FlutterFirebaseAuthRegistrar
ADDED from [:firebase_auth] /Users/zapram/Work/Projects/Mobile/doctor_test/build/firebase_auth/intermediates/merged_manifest/debug/AndroidManifest.xml:11:13-13:85
	android:value
		ADDED from [:firebase_auth] /Users/zapram/Work/Projects/Mobile/doctor_test/build/firebase_auth/intermediates/merged_manifest/debug/AndroidManifest.xml:13:17-82
	android:name
		ADDED from [:firebase_auth] /Users/zapram/Work/Projects/Mobile/doctor_test/build/firebase_auth/intermediates/merged_manifest/debug/AndroidManifest.xml:12:17-124
meta-data#com.google.firebase.components:io.flutter.plugins.firebase.storage.FlutterFirebaseAppRegistrar
ADDED from [:firebase_storage] /Users/zapram/Work/Projects/Mobile/doctor_test/build/firebase_storage/intermediates/merged_manifest/debug/AndroidManifest.xml:11:13-13:85
	android:value
		ADDED from [:firebase_storage] /Users/zapram/Work/Projects/Mobile/doctor_test/build/firebase_storage/intermediates/merged_manifest/debug/AndroidManifest.xml:13:17-82
	android:name
		ADDED from [:firebase_storage] /Users/zapram/Work/Projects/Mobile/doctor_test/build/firebase_storage/intermediates/merged_manifest/debug/AndroidManifest.xml:12:17-126
meta-data#com.google.firebase.components:io.flutter.plugins.firebase.firestore.FlutterFirebaseFirestoreRegistrar
ADDED from [:cloud_firestore] /Users/zapram/Work/Projects/Mobile/doctor_test/build/cloud_firestore/intermediates/merged_manifest/debug/AndroidManifest.xml:11:13-13:85
	android:value
		ADDED from [:cloud_firestore] /Users/zapram/Work/Projects/Mobile/doctor_test/build/cloud_firestore/intermediates/merged_manifest/debug/AndroidManifest.xml:13:17-82
	android:name
		ADDED from [:cloud_firestore] /Users/zapram/Work/Projects/Mobile/doctor_test/build/cloud_firestore/intermediates/merged_manifest/debug/AndroidManifest.xml:12:17-134
meta-data#com.google.firebase.components:io.flutter.plugins.firebase.core.FlutterFirebaseCoreRegistrar
ADDED from [:firebase_core] /Users/zapram/Work/Projects/Mobile/doctor_test/build/firebase_core/intermediates/merged_manifest/debug/AndroidManifest.xml:11:13-13:85
	android:value
		ADDED from [:firebase_core] /Users/zapram/Work/Projects/Mobile/doctor_test/build/firebase_core/intermediates/merged_manifest/debug/AndroidManifest.xml:13:17-82
	android:name
		ADDED from [:firebase_core] /Users/zapram/Work/Projects/Mobile/doctor_test/build/firebase_core/intermediates/merged_manifest/debug/AndroidManifest.xml:12:17-124
provider#io.flutter.plugins.imagepicker.ImagePickerFileProvider
ADDED from [:image_picker_android] /Users/zapram/Work/Projects/Mobile/doctor_test/build/image_picker_android/intermediates/merged_manifest/debug/AndroidManifest.xml:10:9-18:20
	android:grantUriPermissions
		ADDED from [:image_picker_android] /Users/zapram/Work/Projects/Mobile/doctor_test/build/image_picker_android/intermediates/merged_manifest/debug/AndroidManifest.xml:14:13-47
	android:authorities
		ADDED from [:image_picker_android] /Users/zapram/Work/Projects/Mobile/doctor_test/build/image_picker_android/intermediates/merged_manifest/debug/AndroidManifest.xml:12:13-74
	android:exported
		ADDED from [:image_picker_android] /Users/zapram/Work/Projects/Mobile/doctor_test/build/image_picker_android/intermediates/merged_manifest/debug/AndroidManifest.xml:13:13-37
	android:name
		ADDED from [:image_picker_android] /Users/zapram/Work/Projects/Mobile/doctor_test/build/image_picker_android/intermediates/merged_manifest/debug/AndroidManifest.xml:11:13-82
meta-data#android.support.FILE_PROVIDER_PATHS
ADDED from [:image_picker_android] /Users/zapram/Work/Projects/Mobile/doctor_test/build/image_picker_android/intermediates/merged_manifest/debug/AndroidManifest.xml:15:13-17:75
	android:resource
		ADDED from [:image_picker_android] /Users/zapram/Work/Projects/Mobile/doctor_test/build/image_picker_android/intermediates/merged_manifest/debug/AndroidManifest.xml:17:17-72
	android:name
		ADDED from [:image_picker_android] /Users/zapram/Work/Projects/Mobile/doctor_test/build/image_picker_android/intermediates/merged_manifest/debug/AndroidManifest.xml:16:17-67
uses-library#androidx.window.extensions
ADDED from [androidx.window:window:1.0.0-beta04] /Users/zapram/.gradle/caches/transforms-3/542a859793ec57d6a4d40865c7efc6d9/transformed/jetified-window-1.0.0-beta04/AndroidManifest.xml:25:9-27:40
	android:required
		ADDED from [androidx.window:window:1.0.0-beta04] /Users/zapram/.gradle/caches/transforms-3/542a859793ec57d6a4d40865c7efc6d9/transformed/jetified-window-1.0.0-beta04/AndroidManifest.xml:27:13-37
	android:name
		ADDED from [androidx.window:window:1.0.0-beta04] /Users/zapram/.gradle/caches/transforms-3/542a859793ec57d6a4d40865c7efc6d9/transformed/jetified-window-1.0.0-beta04/AndroidManifest.xml:26:13-54
uses-library#androidx.window.sidecar
ADDED from [androidx.window:window:1.0.0-beta04] /Users/zapram/.gradle/caches/transforms-3/542a859793ec57d6a4d40865c7efc6d9/transformed/jetified-window-1.0.0-beta04/AndroidManifest.xml:28:9-30:40
	android:required
		ADDED from [androidx.window:window:1.0.0-beta04] /Users/zapram/.gradle/caches/transforms-3/542a859793ec57d6a4d40865c7efc6d9/transformed/jetified-window-1.0.0-beta04/AndroidManifest.xml:30:13-37
	android:name
		ADDED from [androidx.window:window:1.0.0-beta04] /Users/zapram/.gradle/caches/transforms-3/542a859793ec57d6a4d40865c7efc6d9/transformed/jetified-window-1.0.0-beta04/AndroidManifest.xml:29:13-51
uses-permission#android.permission.ACCESS_NETWORK_STATE
ADDED from [com.google.firebase:firebase-auth:21.1.0] /Users/zapram/.gradle/caches/transforms-3/0548e507d3019ac84ce4969b57803f45/transformed/jetified-firebase-auth-21.1.0/AndroidManifest.xml:24:5-79
MERGED from [com.google.firebase:firebase-firestore:24.4.1] /Users/zapram/.gradle/caches/transforms-3/c2814ab600cd7ad8abb3930813a7dae1/transformed/jetified-firebase-firestore-24.4.1/AndroidManifest.xml:12:5-79
MERGED from [com.google.firebase:firebase-firestore:24.4.1] /Users/zapram/.gradle/caches/transforms-3/c2814ab600cd7ad8abb3930813a7dae1/transformed/jetified-firebase-firestore-24.4.1/AndroidManifest.xml:12:5-79
MERGED from [com.google.firebase:firebase-storage:20.1.0] /Users/zapram/.gradle/caches/transforms-3/0da25f878ca7fc72a1a3e4059e81557e/transformed/jetified-firebase-storage-20.1.0/AndroidManifest.xml:25:5-79
MERGED from [com.google.firebase:firebase-storage:20.1.0] /Users/zapram/.gradle/caches/transforms-3/0da25f878ca7fc72a1a3e4059e81557e/transformed/jetified-firebase-storage-20.1.0/AndroidManifest.xml:25:5-79
MERGED from [com.google.android.gms:play-services-measurement-api:21.2.0] /Users/zapram/.gradle/caches/transforms-3/bfd20290ff5d39e38453adc1ae5698f7/transformed/jetified-play-services-measurement-api-21.2.0/AndroidManifest.xml:23:5-79
MERGED from [com.google.android.gms:play-services-measurement-api:21.2.0] /Users/zapram/.gradle/caches/transforms-3/bfd20290ff5d39e38453adc1ae5698f7/transformed/jetified-play-services-measurement-api-21.2.0/AndroidManifest.xml:23:5-79
MERGED from [com.google.firebase:firebase-installations:17.1.0] /Users/zapram/.gradle/caches/transforms-3/3fe9d54d7b663dbec51ad86b1763f50a/transformed/jetified-firebase-installations-17.1.0/AndroidManifest.xml:9:5-79
MERGED from [com.google.firebase:firebase-installations:17.1.0] /Users/zapram/.gradle/caches/transforms-3/3fe9d54d7b663dbec51ad86b1763f50a/transformed/jetified-firebase-installations-17.1.0/AndroidManifest.xml:9:5-79
MERGED from [com.google.android.gms:play-services-measurement:21.2.0] /Users/zapram/.gradle/caches/transforms-3/5ec3faad4c67c5d02d41a8d7d7f45ea7/transformed/jetified-play-services-measurement-21.2.0/AndroidManifest.xml:24:5-79
MERGED from [com.google.android.gms:play-services-measurement:21.2.0] /Users/zapram/.gradle/caches/transforms-3/5ec3faad4c67c5d02d41a8d7d7f45ea7/transformed/jetified-play-services-measurement-21.2.0/AndroidManifest.xml:24:5-79
MERGED from [com.google.android.gms:play-services-measurement-impl:21.2.0] /Users/zapram/.gradle/caches/transforms-3/ed46e731aa84ba74e4900038bc2b3fc2/transformed/jetified-play-services-measurement-impl-21.2.0/AndroidManifest.xml:24:5-79
MERGED from [com.google.android.gms:play-services-measurement-impl:21.2.0] /Users/zapram/.gradle/caches/transforms-3/ed46e731aa84ba74e4900038bc2b3fc2/transformed/jetified-play-services-measurement-impl-21.2.0/AndroidManifest.xml:24:5-79
MERGED from [com.google.android.gms:play-services-measurement-sdk-api:21.2.0] /Users/zapram/.gradle/caches/transforms-3/bccbe6d122c1b8acd4eabe8df012de0c/transformed/jetified-play-services-measurement-sdk-api-21.2.0/AndroidManifest.xml:24:5-79
MERGED from [com.google.android.gms:play-services-measurement-sdk-api:21.2.0] /Users/zapram/.gradle/caches/transforms-3/bccbe6d122c1b8acd4eabe8df012de0c/transformed/jetified-play-services-measurement-sdk-api-21.2.0/AndroidManifest.xml:24:5-79
MERGED from [io.grpc:grpc-android:1.50.2] /Users/zapram/.gradle/caches/transforms-3/2a83207a49bc089d03b815b8ac6abc99/transformed/jetified-grpc-android-1.50.2/AndroidManifest.xml:9:5-79
MERGED from [io.grpc:grpc-android:1.50.2] /Users/zapram/.gradle/caches/transforms-3/2a83207a49bc089d03b815b8ac6abc99/transformed/jetified-grpc-android-1.50.2/AndroidManifest.xml:9:5-79
	android:name
		ADDED from [com.google.firebase:firebase-auth:21.1.0] /Users/zapram/.gradle/caches/transforms-3/0548e507d3019ac84ce4969b57803f45/transformed/jetified-firebase-auth-21.1.0/AndroidManifest.xml:24:22-76
activity#com.google.firebase.auth.internal.GenericIdpActivity
ADDED from [com.google.firebase:firebase-auth:21.1.0] /Users/zapram/.gradle/caches/transforms-3/0548e507d3019ac84ce4969b57803f45/transformed/jetified-firebase-auth-21.1.0/AndroidManifest.xml:27:9-44:20
	android:excludeFromRecents
		ADDED from [com.google.firebase:firebase-auth:21.1.0] /Users/zapram/.gradle/caches/transforms-3/0548e507d3019ac84ce4969b57803f45/transformed/jetified-firebase-auth-21.1.0/AndroidManifest.xml:29:13-46
	android:launchMode
		ADDED from [com.google.firebase:firebase-auth:21.1.0] /Users/zapram/.gradle/caches/transforms-3/0548e507d3019ac84ce4969b57803f45/transformed/jetified-firebase-auth-21.1.0/AndroidManifest.xml:31:13-44
	android:exported
		ADDED from [com.google.firebase:firebase-auth:21.1.0] /Users/zapram/.gradle/caches/transforms-3/0548e507d3019ac84ce4969b57803f45/transformed/jetified-firebase-auth-21.1.0/AndroidManifest.xml:30:13-36
	android:theme
		ADDED from [com.google.firebase:firebase-auth:21.1.0] /Users/zapram/.gradle/caches/transforms-3/0548e507d3019ac84ce4969b57803f45/transformed/jetified-firebase-auth-21.1.0/AndroidManifest.xml:32:13-72
	android:name
		ADDED from [com.google.firebase:firebase-auth:21.1.0] /Users/zapram/.gradle/caches/transforms-3/0548e507d3019ac84ce4969b57803f45/transformed/jetified-firebase-auth-21.1.0/AndroidManifest.xml:28:13-80
intent-filter#action:name:android.intent.action.VIEW+category:name:android.intent.category.BROWSABLE+category:name:android.intent.category.DEFAULT+data:host:firebase.auth+data:path:/+data:scheme:genericidp
ADDED from [com.google.firebase:firebase-auth:21.1.0] /Users/zapram/.gradle/caches/transforms-3/0548e507d3019ac84ce4969b57803f45/transformed/jetified-firebase-auth-21.1.0/AndroidManifest.xml:33:13-43:29
action#android.intent.action.VIEW
ADDED from [com.google.firebase:firebase-auth:21.1.0] /Users/zapram/.gradle/caches/transforms-3/0548e507d3019ac84ce4969b57803f45/transformed/jetified-firebase-auth-21.1.0/AndroidManifest.xml:34:17-69
	android:name
		ADDED from [com.google.firebase:firebase-auth:21.1.0] /Users/zapram/.gradle/caches/transforms-3/0548e507d3019ac84ce4969b57803f45/transformed/jetified-firebase-auth-21.1.0/AndroidManifest.xml:34:25-66
category#android.intent.category.DEFAULT
ADDED from [com.google.firebase:firebase-auth:21.1.0] /Users/zapram/.gradle/caches/transforms-3/0548e507d3019ac84ce4969b57803f45/transformed/jetified-firebase-auth-21.1.0/AndroidManifest.xml:36:17-76
	android:name
		ADDED from [com.google.firebase:firebase-auth:21.1.0] /Users/zapram/.gradle/caches/transforms-3/0548e507d3019ac84ce4969b57803f45/transformed/jetified-firebase-auth-21.1.0/AndroidManifest.xml:36:27-73
category#android.intent.category.BROWSABLE
ADDED from [com.google.firebase:firebase-auth:21.1.0] /Users/zapram/.gradle/caches/transforms-3/0548e507d3019ac84ce4969b57803f45/transformed/jetified-firebase-auth-21.1.0/AndroidManifest.xml:37:17-78
	android:name
		ADDED from [com.google.firebase:firebase-auth:21.1.0] /Users/zapram/.gradle/caches/transforms-3/0548e507d3019ac84ce4969b57803f45/transformed/jetified-firebase-auth-21.1.0/AndroidManifest.xml:37:27-75
data
ADDED from [com.google.firebase:firebase-auth:21.1.0] /Users/zapram/.gradle/caches/transforms-3/0548e507d3019ac84ce4969b57803f45/transformed/jetified-firebase-auth-21.1.0/AndroidManifest.xml:39:17-42:51
	android:path
		ADDED from [com.google.firebase:firebase-auth:21.1.0] /Users/zapram/.gradle/caches/transforms-3/0548e507d3019ac84ce4969b57803f45/transformed/jetified-firebase-auth-21.1.0/AndroidManifest.xml:41:21-37
	android:host
		ADDED from [com.google.firebase:firebase-auth:21.1.0] /Users/zapram/.gradle/caches/transforms-3/0548e507d3019ac84ce4969b57803f45/transformed/jetified-firebase-auth-21.1.0/AndroidManifest.xml:40:21-49
	android:scheme
		ADDED from [com.google.firebase:firebase-auth:21.1.0] /Users/zapram/.gradle/caches/transforms-3/0548e507d3019ac84ce4969b57803f45/transformed/jetified-firebase-auth-21.1.0/AndroidManifest.xml:42:21-48
activity#com.google.firebase.auth.internal.RecaptchaActivity
ADDED from [com.google.firebase:firebase-auth:21.1.0] /Users/zapram/.gradle/caches/transforms-3/0548e507d3019ac84ce4969b57803f45/transformed/jetified-firebase-auth-21.1.0/AndroidManifest.xml:45:9-62:20
	android:excludeFromRecents
		ADDED from [com.google.firebase:firebase-auth:21.1.0] /Users/zapram/.gradle/caches/transforms-3/0548e507d3019ac84ce4969b57803f45/transformed/jetified-firebase-auth-21.1.0/AndroidManifest.xml:47:13-46
	android:launchMode
		ADDED from [com.google.firebase:firebase-auth:21.1.0] /Users/zapram/.gradle/caches/transforms-3/0548e507d3019ac84ce4969b57803f45/transformed/jetified-firebase-auth-21.1.0/AndroidManifest.xml:49:13-44
	android:exported
		ADDED from [com.google.firebase:firebase-auth:21.1.0] /Users/zapram/.gradle/caches/transforms-3/0548e507d3019ac84ce4969b57803f45/transformed/jetified-firebase-auth-21.1.0/AndroidManifest.xml:48:13-36
	android:theme
		ADDED from [com.google.firebase:firebase-auth:21.1.0] /Users/zapram/.gradle/caches/transforms-3/0548e507d3019ac84ce4969b57803f45/transformed/jetified-firebase-auth-21.1.0/AndroidManifest.xml:50:13-72
	android:name
		ADDED from [com.google.firebase:firebase-auth:21.1.0] /Users/zapram/.gradle/caches/transforms-3/0548e507d3019ac84ce4969b57803f45/transformed/jetified-firebase-auth-21.1.0/AndroidManifest.xml:46:13-79
intent-filter#action:name:android.intent.action.VIEW+category:name:android.intent.category.BROWSABLE+category:name:android.intent.category.DEFAULT+data:host:firebase.auth+data:path:/+data:scheme:recaptcha
ADDED from [com.google.firebase:firebase-auth:21.1.0] /Users/zapram/.gradle/caches/transforms-3/0548e507d3019ac84ce4969b57803f45/transformed/jetified-firebase-auth-21.1.0/AndroidManifest.xml:51:13-61:29
meta-data#com.google.firebase.components:com.google.firebase.auth.FirebaseAuthRegistrar
ADDED from [com.google.firebase:firebase-auth:21.1.0] /Users/zapram/.gradle/caches/transforms-3/0548e507d3019ac84ce4969b57803f45/transformed/jetified-firebase-auth-21.1.0/AndroidManifest.xml:67:13-69:85
	android:value
		ADDED from [com.google.firebase:firebase-auth:21.1.0] /Users/zapram/.gradle/caches/transforms-3/0548e507d3019ac84ce4969b57803f45/transformed/jetified-firebase-auth-21.1.0/AndroidManifest.xml:69:17-82
	android:name
		ADDED from [com.google.firebase:firebase-auth:21.1.0] /Users/zapram/.gradle/caches/transforms-3/0548e507d3019ac84ce4969b57803f45/transformed/jetified-firebase-auth-21.1.0/AndroidManifest.xml:68:17-109
meta-data#com.google.firebase.components:com.google.firebase.firestore.FirestoreRegistrar
ADDED from [com.google.firebase:firebase-firestore:24.4.1] /Users/zapram/.gradle/caches/transforms-3/c2814ab600cd7ad8abb3930813a7dae1/transformed/jetified-firebase-firestore-24.4.1/AndroidManifest.xml:19:13-21:85
	android:value
		ADDED from [com.google.firebase:firebase-firestore:24.4.1] /Users/zapram/.gradle/caches/transforms-3/c2814ab600cd7ad8abb3930813a7dae1/transformed/jetified-firebase-firestore-24.4.1/AndroidManifest.xml:21:17-82
	android:name
		ADDED from [com.google.firebase:firebase-firestore:24.4.1] /Users/zapram/.gradle/caches/transforms-3/c2814ab600cd7ad8abb3930813a7dae1/transformed/jetified-firebase-firestore-24.4.1/AndroidManifest.xml:20:17-111
meta-data#com.google.firebase.components:com.google.firebase.storage.StorageRegistrar
ADDED from [com.google.firebase:firebase-storage:20.1.0] /Users/zapram/.gradle/caches/transforms-3/0da25f878ca7fc72a1a3e4059e81557e/transformed/jetified-firebase-storage-20.1.0/AndroidManifest.xml:32:13-34:85
	android:value
		ADDED from [com.google.firebase:firebase-storage:20.1.0] /Users/zapram/.gradle/caches/transforms-3/0da25f878ca7fc72a1a3e4059e81557e/transformed/jetified-firebase-storage-20.1.0/AndroidManifest.xml:34:17-82
	android:name
		ADDED from [com.google.firebase:firebase-storage:20.1.0] /Users/zapram/.gradle/caches/transforms-3/0da25f878ca7fc72a1a3e4059e81557e/transformed/jetified-firebase-storage-20.1.0/AndroidManifest.xml:33:17-107
uses-permission#android.permission.WAKE_LOCK
ADDED from [com.google.android.gms:play-services-measurement-api:21.2.0] /Users/zapram/.gradle/caches/transforms-3/bfd20290ff5d39e38453adc1ae5698f7/transformed/jetified-play-services-measurement-api-21.2.0/AndroidManifest.xml:24:5-68
MERGED from [com.google.android.gms:play-services-measurement:21.2.0] /Users/zapram/.gradle/caches/transforms-3/5ec3faad4c67c5d02d41a8d7d7f45ea7/transformed/jetified-play-services-measurement-21.2.0/AndroidManifest.xml:25:5-68
MERGED from [com.google.android.gms:play-services-measurement:21.2.0] /Users/zapram/.gradle/caches/transforms-3/5ec3faad4c67c5d02d41a8d7d7f45ea7/transformed/jetified-play-services-measurement-21.2.0/AndroidManifest.xml:25:5-68
MERGED from [com.google.android.gms:play-services-measurement-impl:21.2.0] /Users/zapram/.gradle/caches/transforms-3/ed46e731aa84ba74e4900038bc2b3fc2/transformed/jetified-play-services-measurement-impl-21.2.0/AndroidManifest.xml:25:5-68
MERGED from [com.google.android.gms:play-services-measurement-impl:21.2.0] /Users/zapram/.gradle/caches/transforms-3/ed46e731aa84ba74e4900038bc2b3fc2/transformed/jetified-play-services-measurement-impl-21.2.0/AndroidManifest.xml:25:5-68
MERGED from [com.google.android.gms:play-services-measurement-sdk-api:21.2.0] /Users/zapram/.gradle/caches/transforms-3/bccbe6d122c1b8acd4eabe8df012de0c/transformed/jetified-play-services-measurement-sdk-api-21.2.0/AndroidManifest.xml:25:5-68
MERGED from [com.google.android.gms:play-services-measurement-sdk-api:21.2.0] /Users/zapram/.gradle/caches/transforms-3/bccbe6d122c1b8acd4eabe8df012de0c/transformed/jetified-play-services-measurement-sdk-api-21.2.0/AndroidManifest.xml:25:5-68
	android:name
		ADDED from [com.google.android.gms:play-services-measurement-api:21.2.0] /Users/zapram/.gradle/caches/transforms-3/bfd20290ff5d39e38453adc1ae5698f7/transformed/jetified-play-services-measurement-api-21.2.0/AndroidManifest.xml:24:22-65
uses-permission#com.google.android.gms.permission.AD_ID
ADDED from [com.google.android.gms:play-services-measurement-api:21.2.0] /Users/zapram/.gradle/caches/transforms-3/bfd20290ff5d39e38453adc1ae5698f7/transformed/jetified-play-services-measurement-api-21.2.0/AndroidManifest.xml:25:5-79
MERGED from [com.google.android.gms:play-services-measurement-impl:21.2.0] /Users/zapram/.gradle/caches/transforms-3/ed46e731aa84ba74e4900038bc2b3fc2/transformed/jetified-play-services-measurement-impl-21.2.0/AndroidManifest.xml:27:5-79
MERGED from [com.google.android.gms:play-services-measurement-impl:21.2.0] /Users/zapram/.gradle/caches/transforms-3/ed46e731aa84ba74e4900038bc2b3fc2/transformed/jetified-play-services-measurement-impl-21.2.0/AndroidManifest.xml:27:5-79
MERGED from [com.google.android.gms:play-services-ads-identifier:18.0.0] /Users/zapram/.gradle/caches/transforms-3/3df6ed1d9bed9e9b8d571c9997f676bd/transformed/jetified-play-services-ads-identifier-18.0.0/AndroidManifest.xml:23:5-79
MERGED from [com.google.android.gms:play-services-ads-identifier:18.0.0] /Users/zapram/.gradle/caches/transforms-3/3df6ed1d9bed9e9b8d571c9997f676bd/transformed/jetified-play-services-ads-identifier-18.0.0/AndroidManifest.xml:23:5-79
MERGED from [com.google.android.gms:play-services-measurement-sdk-api:21.2.0] /Users/zapram/.gradle/caches/transforms-3/bccbe6d122c1b8acd4eabe8df012de0c/transformed/jetified-play-services-measurement-sdk-api-21.2.0/AndroidManifest.xml:26:5-79
MERGED from [com.google.android.gms:play-services-measurement-sdk-api:21.2.0] /Users/zapram/.gradle/caches/transforms-3/bccbe6d122c1b8acd4eabe8df012de0c/transformed/jetified-play-services-measurement-sdk-api-21.2.0/AndroidManifest.xml:26:5-79
	android:name
		ADDED from [com.google.android.gms:play-services-measurement-api:21.2.0] /Users/zapram/.gradle/caches/transforms-3/bfd20290ff5d39e38453adc1ae5698f7/transformed/jetified-play-services-measurement-api-21.2.0/AndroidManifest.xml:25:22-76
meta-data#com.google.firebase.components:com.google.firebase.analytics.connector.internal.AnalyticsConnectorRegistrar
ADDED from [com.google.android.gms:play-services-measurement-api:21.2.0] /Users/zapram/.gradle/caches/transforms-3/bfd20290ff5d39e38453adc1ae5698f7/transformed/jetified-play-services-measurement-api-21.2.0/AndroidManifest.xml:31:13-33:85
	android:value
		ADDED from [com.google.android.gms:play-services-measurement-api:21.2.0] /Users/zapram/.gradle/caches/transforms-3/bfd20290ff5d39e38453adc1ae5698f7/transformed/jetified-play-services-measurement-api-21.2.0/AndroidManifest.xml:33:17-82
	android:name
		ADDED from [com.google.android.gms:play-services-measurement-api:21.2.0] /Users/zapram/.gradle/caches/transforms-3/bfd20290ff5d39e38453adc1ae5698f7/transformed/jetified-play-services-measurement-api-21.2.0/AndroidManifest.xml:32:17-139
meta-data#com.google.firebase.components:com.google.firebase.installations.FirebaseInstallationsRegistrar
ADDED from [com.google.firebase:firebase-installations:17.1.0] /Users/zapram/.gradle/caches/transforms-3/3fe9d54d7b663dbec51ad86b1763f50a/transformed/jetified-firebase-installations-17.1.0/AndroidManifest.xml:17:13-19:85
	android:value
		ADDED from [com.google.firebase:firebase-installations:17.1.0] /Users/zapram/.gradle/caches/transforms-3/3fe9d54d7b663dbec51ad86b1763f50a/transformed/jetified-firebase-installations-17.1.0/AndroidManifest.xml:19:17-82
	android:name
		ADDED from [com.google.firebase:firebase-installations:17.1.0] /Users/zapram/.gradle/caches/transforms-3/3fe9d54d7b663dbec51ad86b1763f50a/transformed/jetified-firebase-installations-17.1.0/AndroidManifest.xml:18:17-127
provider#com.google.firebase.provider.FirebaseInitProvider
ADDED from [com.google.firebase:firebase-common:20.2.0] /Users/zapram/.gradle/caches/transforms-3/c1f7cd0e68ddf89c76a753ac7fd1a66c/transformed/jetified-firebase-common-20.2.0/AndroidManifest.xml:25:9-30:39
	android:authorities
		ADDED from [com.google.firebase:firebase-common:20.2.0] /Users/zapram/.gradle/caches/transforms-3/c1f7cd0e68ddf89c76a753ac7fd1a66c/transformed/jetified-firebase-common-20.2.0/AndroidManifest.xml:27:13-72
	android:exported
		ADDED from [com.google.firebase:firebase-common:20.2.0] /Users/zapram/.gradle/caches/transforms-3/c1f7cd0e68ddf89c76a753ac7fd1a66c/transformed/jetified-firebase-common-20.2.0/AndroidManifest.xml:29:13-37
	android:directBootAware
		ADDED from [com.google.firebase:firebase-common:20.2.0] /Users/zapram/.gradle/caches/transforms-3/c1f7cd0e68ddf89c76a753ac7fd1a66c/transformed/jetified-firebase-common-20.2.0/AndroidManifest.xml:28:13-43
	android:initOrder
		ADDED from [com.google.firebase:firebase-common:20.2.0] /Users/zapram/.gradle/caches/transforms-3/c1f7cd0e68ddf89c76a753ac7fd1a66c/transformed/jetified-firebase-common-20.2.0/AndroidManifest.xml:30:13-36
	android:name
		ADDED from [com.google.firebase:firebase-common:20.2.0] /Users/zapram/.gradle/caches/transforms-3/c1f7cd0e68ddf89c76a753ac7fd1a66c/transformed/jetified-firebase-common-20.2.0/AndroidManifest.xml:26:13-77
activity#com.google.android.gms.auth.api.signin.internal.SignInHubActivity
ADDED from [com.google.android.gms:play-services-auth:20.4.0] /Users/zapram/.gradle/caches/transforms-3/13c11db9378fe5d4a5611e5dfad2a7a1/transformed/jetified-play-services-auth-20.4.0/AndroidManifest.xml:23:9-27:75
	android:excludeFromRecents
		ADDED from [com.google.android.gms:play-services-auth:20.4.0] /Users/zapram/.gradle/caches/transforms-3/13c11db9378fe5d4a5611e5dfad2a7a1/transformed/jetified-play-services-auth-20.4.0/AndroidManifest.xml:25:13-46
	android:exported
		ADDED from [com.google.android.gms:play-services-auth:20.4.0] /Users/zapram/.gradle/caches/transforms-3/13c11db9378fe5d4a5611e5dfad2a7a1/transformed/jetified-play-services-auth-20.4.0/AndroidManifest.xml:26:13-37
	android:theme
		ADDED from [com.google.android.gms:play-services-auth:20.4.0] /Users/zapram/.gradle/caches/transforms-3/13c11db9378fe5d4a5611e5dfad2a7a1/transformed/jetified-play-services-auth-20.4.0/AndroidManifest.xml:27:13-72
	android:name
		ADDED from [com.google.android.gms:play-services-auth:20.4.0] /Users/zapram/.gradle/caches/transforms-3/13c11db9378fe5d4a5611e5dfad2a7a1/transformed/jetified-play-services-auth-20.4.0/AndroidManifest.xml:24:13-93
service#com.google.android.gms.auth.api.signin.RevocationBoundService
ADDED from [com.google.android.gms:play-services-auth:20.4.0] /Users/zapram/.gradle/caches/transforms-3/13c11db9378fe5d4a5611e5dfad2a7a1/transformed/jetified-play-services-auth-20.4.0/AndroidManifest.xml:33:9-37:51
	android:exported
		ADDED from [com.google.android.gms:play-services-auth:20.4.0] /Users/zapram/.gradle/caches/transforms-3/13c11db9378fe5d4a5611e5dfad2a7a1/transformed/jetified-play-services-auth-20.4.0/AndroidManifest.xml:35:13-36
	android:visibleToInstantApps
		ADDED from [com.google.android.gms:play-services-auth:20.4.0] /Users/zapram/.gradle/caches/transforms-3/13c11db9378fe5d4a5611e5dfad2a7a1/transformed/jetified-play-services-auth-20.4.0/AndroidManifest.xml:37:13-48
	android:permission
		ADDED from [com.google.android.gms:play-services-auth:20.4.0] /Users/zapram/.gradle/caches/transforms-3/13c11db9378fe5d4a5611e5dfad2a7a1/transformed/jetified-play-services-auth-20.4.0/AndroidManifest.xml:36:13-107
	android:name
		ADDED from [com.google.android.gms:play-services-auth:20.4.0] /Users/zapram/.gradle/caches/transforms-3/13c11db9378fe5d4a5611e5dfad2a7a1/transformed/jetified-play-services-auth-20.4.0/AndroidManifest.xml:34:13-89
uses-permission#com.google.android.finsky.permission.BIND_GET_INSTALL_REFERRER_SERVICE
ADDED from [com.google.android.gms:play-services-measurement:21.2.0] /Users/zapram/.gradle/caches/transforms-3/5ec3faad4c67c5d02d41a8d7d7f45ea7/transformed/jetified-play-services-measurement-21.2.0/AndroidManifest.xml:26:5-110
MERGED from [com.google.android.gms:play-services-measurement-impl:21.2.0] /Users/zapram/.gradle/caches/transforms-3/ed46e731aa84ba74e4900038bc2b3fc2/transformed/jetified-play-services-measurement-impl-21.2.0/AndroidManifest.xml:26:5-110
MERGED from [com.google.android.gms:play-services-measurement-impl:21.2.0] /Users/zapram/.gradle/caches/transforms-3/ed46e731aa84ba74e4900038bc2b3fc2/transformed/jetified-play-services-measurement-impl-21.2.0/AndroidManifest.xml:26:5-110
	android:name
		ADDED from [com.google.android.gms:play-services-measurement:21.2.0] /Users/zapram/.gradle/caches/transforms-3/5ec3faad4c67c5d02d41a8d7d7f45ea7/transformed/jetified-play-services-measurement-21.2.0/AndroidManifest.xml:26:22-107
receiver#com.google.android.gms.measurement.AppMeasurementReceiver
ADDED from [com.google.android.gms:play-services-measurement:21.2.0] /Users/zapram/.gradle/caches/transforms-3/5ec3faad4c67c5d02d41a8d7d7f45ea7/transformed/jetified-play-services-measurement-21.2.0/AndroidManifest.xml:29:9-33:20
	android:enabled
		ADDED from [com.google.android.gms:play-services-measurement:21.2.0] /Users/zapram/.gradle/caches/transforms-3/5ec3faad4c67c5d02d41a8d7d7f45ea7/transformed/jetified-play-services-measurement-21.2.0/AndroidManifest.xml:31:13-35
	android:exported
		ADDED from [com.google.android.gms:play-services-measurement:21.2.0] /Users/zapram/.gradle/caches/transforms-3/5ec3faad4c67c5d02d41a8d7d7f45ea7/transformed/jetified-play-services-measurement-21.2.0/AndroidManifest.xml:32:13-37
	android:name
		ADDED from [com.google.android.gms:play-services-measurement:21.2.0] /Users/zapram/.gradle/caches/transforms-3/5ec3faad4c67c5d02d41a8d7d7f45ea7/transformed/jetified-play-services-measurement-21.2.0/AndroidManifest.xml:30:13-85
service#com.google.android.gms.measurement.AppMeasurementService
ADDED from [com.google.android.gms:play-services-measurement:21.2.0] /Users/zapram/.gradle/caches/transforms-3/5ec3faad4c67c5d02d41a8d7d7f45ea7/transformed/jetified-play-services-measurement-21.2.0/AndroidManifest.xml:35:9-38:40
	android:enabled
		ADDED from [com.google.android.gms:play-services-measurement:21.2.0] /Users/zapram/.gradle/caches/transforms-3/5ec3faad4c67c5d02d41a8d7d7f45ea7/transformed/jetified-play-services-measurement-21.2.0/AndroidManifest.xml:37:13-35
	android:exported
		ADDED from [com.google.android.gms:play-services-measurement:21.2.0] /Users/zapram/.gradle/caches/transforms-3/5ec3faad4c67c5d02d41a8d7d7f45ea7/transformed/jetified-play-services-measurement-21.2.0/AndroidManifest.xml:38:13-37
	android:name
		ADDED from [com.google.android.gms:play-services-measurement:21.2.0] /Users/zapram/.gradle/caches/transforms-3/5ec3faad4c67c5d02d41a8d7d7f45ea7/transformed/jetified-play-services-measurement-21.2.0/AndroidManifest.xml:36:13-84
service#com.google.android.gms.measurement.AppMeasurementJobService
ADDED from [com.google.android.gms:play-services-measurement:21.2.0] /Users/zapram/.gradle/caches/transforms-3/5ec3faad4c67c5d02d41a8d7d7f45ea7/transformed/jetified-play-services-measurement-21.2.0/AndroidManifest.xml:39:9-43:72
	android:enabled
		ADDED from [com.google.android.gms:play-services-measurement:21.2.0] /Users/zapram/.gradle/caches/transforms-3/5ec3faad4c67c5d02d41a8d7d7f45ea7/transformed/jetified-play-services-measurement-21.2.0/AndroidManifest.xml:41:13-35
	android:exported
		ADDED from [com.google.android.gms:play-services-measurement:21.2.0] /Users/zapram/.gradle/caches/transforms-3/5ec3faad4c67c5d02d41a8d7d7f45ea7/transformed/jetified-play-services-measurement-21.2.0/AndroidManifest.xml:42:13-37
	android:permission
		ADDED from [com.google.android.gms:play-services-measurement:21.2.0] /Users/zapram/.gradle/caches/transforms-3/5ec3faad4c67c5d02d41a8d7d7f45ea7/transformed/jetified-play-services-measurement-21.2.0/AndroidManifest.xml:43:13-69
	android:name
		ADDED from [com.google.android.gms:play-services-measurement:21.2.0] /Users/zapram/.gradle/caches/transforms-3/5ec3faad4c67c5d02d41a8d7d7f45ea7/transformed/jetified-play-services-measurement-21.2.0/AndroidManifest.xml:40:13-87
activity#com.google.android.gms.common.api.GoogleApiActivity
ADDED from [com.google.android.gms:play-services-base:18.0.1] /Users/zapram/.gradle/caches/transforms-3/19fea4fb28dedd992824e13cc158e7a1/transformed/jetified-play-services-base-18.0.1/AndroidManifest.xml:20:9-22:45
	android:exported
		ADDED from [com.google.android.gms:play-services-base:18.0.1] /Users/zapram/.gradle/caches/transforms-3/19fea4fb28dedd992824e13cc158e7a1/transformed/jetified-play-services-base-18.0.1/AndroidManifest.xml:22:19-43
	android:theme
		ADDED from [com.google.android.gms:play-services-base:18.0.1] /Users/zapram/.gradle/caches/transforms-3/19fea4fb28dedd992824e13cc158e7a1/transformed/jetified-play-services-base-18.0.1/AndroidManifest.xml:21:19-78
	android:name
		ADDED from [com.google.android.gms:play-services-base:18.0.1] /Users/zapram/.gradle/caches/transforms-3/19fea4fb28dedd992824e13cc158e7a1/transformed/jetified-play-services-base-18.0.1/AndroidManifest.xml:20:19-85
meta-data#com.google.android.gms.version
ADDED from [com.google.android.gms:play-services-basement:18.1.0] /Users/zapram/.gradle/caches/transforms-3/3ee0f8915dc9bf42c60f3eef0b7bd28a/transformed/jetified-play-services-basement-18.1.0/AndroidManifest.xml:21:9-23:69
	android:value
		ADDED from [com.google.android.gms:play-services-basement:18.1.0] /Users/zapram/.gradle/caches/transforms-3/3ee0f8915dc9bf42c60f3eef0b7bd28a/transformed/jetified-play-services-basement-18.1.0/AndroidManifest.xml:23:13-66
	android:name
		ADDED from [com.google.android.gms:play-services-basement:18.1.0] /Users/zapram/.gradle/caches/transforms-3/3ee0f8915dc9bf42c60f3eef0b7bd28a/transformed/jetified-play-services-basement-18.1.0/AndroidManifest.xml:22:13-58
