{
  "configVersion": 2,
  "packages": [
    {
      "name": "_flutterfire_internals",
      "rootUri": "file:///Users/zapram/Work/flutter/.pub-cache/hosted/pub.dartlang.org/_flutterfire_internals-1.0.2",
      "packageUri": "lib/",
      "languageVersion": "2.16"
    },
    {
      "name": "async",
      "rootUri": "file:///Users/zapram/Work/flutter/.pub-cache/hosted/pub.dartlang.org/async-2.9.0",
      "packageUri": "lib/",
      "languageVersion": "2.14"
    },
    {
      "name": "bloc",
      "rootUri": "file:///Users/zapram/Work/flutter/.pub-cache/hosted/pub.dartlang.org/bloc-8.1.0",
      "packageUri": "lib/",
      "languageVersion": "2.12"
    },
    {
      "name": "boolean_selector",
      "rootUri": "file:///Users/zapram/Work/flutter/.pub-cache/hosted/pub.dartlang.org/boolean_selector-2.1.0",
      "packageUri": "lib/",
      "languageVersion": "2.12"
    },
    {
      "name": "characters",
      "rootUri": "file:///Users/zapram/Work/flutter/.pub-cache/hosted/pub.dartlang.org/characters-1.2.1",
      "packageUri": "lib/",
      "languageVersion": "2.12"
    },
    {
      "name": "clock",
      "rootUri": "file:///Users/zapram/Work/flutter/.pub-cache/hosted/pub.dartlang.org/clock-1.1.1",
      "packageUri": "lib/",
      "languageVersion": "2.12"
    },
    {
      "name": "cloud_firestore",
      "rootUri": "file:///Users/zapram/Work/flutter/.pub-cache/hosted/pub.dartlang.org/cloud_firestore-3.5.1",
      "packageUri": "lib/",
      "languageVersion": "2.16"
    },
    {
      "name": "cloud_firestore_platform_interface",
      "rootUri": "file:///Users/zapram/Work/flutter/.pub-cache/hosted/pub.dartlang.org/cloud_firestore_platform_interface-5.7.7",
      "packageUri": "lib/",
      "languageVersion": "2.16"
    },
    {
      "name": "cloud_firestore_web",
      "rootUri": "file:///Users/zapram/Work/flutter/.pub-cache/hosted/pub.dartlang.org/cloud_firestore_web-2.8.10",
      "packageUri": "lib/",
      "languageVersion": "2.16"
    },
    {
      "name": "collection",
      "rootUri": "file:///Users/zapram/Work/flutter/.pub-cache/hosted/pub.dartlang.org/collection-1.16.0",
      "packageUri": "lib/",
      "languageVersion": "2.12"
    },
    {
      "name": "cross_file",
      "rootUri": "file:///Users/zapram/Work/flutter/.pub-cache/hosted/pub.dartlang.org/cross_file-0.3.3+2",
      "packageUri": "lib/",
      "languageVersion": "2.12"
    },
    {
      "name": "crypto",
      "rootUri": "file:///Users/zapram/Work/flutter/.pub-cache/hosted/pub.dartlang.org/crypto-3.0.2",
      "packageUri": "lib/",
      "languageVersion": "2.14"
    },
    {
      "name": "cupertino_icons",
      "rootUri": "file:///Users/zapram/Work/flutter/.pub-cache/hosted/pub.dartlang.org/cupertino_icons-1.0.5",
      "packageUri": "lib/",
      "languageVersion": "2.12"
    },
    {
      "name": "dio",
      "rootUri": "file:///Users/zapram/Work/flutter/.pub-cache/hosted/pub.dartlang.org/dio-4.0.6",
      "packageUri": "lib/",
      "languageVersion": "2.12"
    },
    {
      "name": "dots_indicator",
      "rootUri": "file:///Users/zapram/Work/flutter/.pub-cache/hosted/pub.dartlang.org/dots_indicator-2.1.0",
      "packageUri": "lib/",
      "languageVersion": "2.12"
    },
    {
      "name": "equatable",
      "rootUri": "file:///Users/zapram/Work/flutter/.pub-cache/hosted/pub.dartlang.org/equatable-2.0.5",
      "packageUri": "lib/",
      "languageVersion": "2.12"
    },
    {
      "name": "fake_async",
      "rootUri": "file:///Users/zapram/Work/flutter/.pub-cache/hosted/pub.dartlang.org/fake_async-1.3.1",
      "packageUri": "lib/",
      "languageVersion": "2.12"
    },
    {
      "name": "ffi",
      "rootUri": "file:///Users/zapram/Work/flutter/.pub-cache/hosted/pub.dartlang.org/ffi-2.0.1",
      "packageUri": "lib/",
      "languageVersion": "2.17"
    },
    {
      "name": "file",
      "rootUri": "file:///Users/zapram/Work/flutter/.pub-cache/hosted/pub.dartlang.org/file-6.1.4",
      "packageUri": "lib/",
      "languageVersion": "2.12"
    },
    {
      "name": "firebase_auth",
      "rootUri": "file:///Users/zapram/Work/flutter/.pub-cache/hosted/pub.dartlang.org/firebase_auth-3.11.2",
      "packageUri": "lib/",
      "languageVersion": "2.16"
    },
    {
      "name": "firebase_auth_platform_interface",
      "rootUri": "file:///Users/zapram/Work/flutter/.pub-cache/hosted/pub.dartlang.org/firebase_auth_platform_interface-6.10.1",
      "packageUri": "lib/",
      "languageVersion": "2.16"
    },
    {
      "name": "firebase_auth_web",
      "rootUri": "file:///Users/zapram/Work/flutter/.pub-cache/hosted/pub.dartlang.org/firebase_auth_web-4.6.1",
      "packageUri": "lib/",
      "languageVersion": "2.16"
    },
    {
      "name": "firebase_core",
      "rootUri": "file:///Users/zapram/Work/flutter/.pub-cache/hosted/pub.dartlang.org/firebase_core-1.24.0",
      "packageUri": "lib/",
      "languageVersion": "2.16"
    },
    {
      "name": "firebase_core_platform_interface",
      "rootUri": "file:///Users/zapram/Work/flutter/.pub-cache/hosted/pub.dartlang.org/firebase_core_platform_interface-4.5.1",
      "packageUri": "lib/",
      "languageVersion": "2.16"
    },
    {
      "name": "firebase_core_web",
      "rootUri": "file:///Users/zapram/Work/flutter/.pub-cache/hosted/pub.dartlang.org/firebase_core_web-1.7.3",
      "packageUri": "lib/",
      "languageVersion": "2.16"
    },
    {
      "name": "firebase_storage",
      "rootUri": "file:///Users/zapram/Work/flutter/.pub-cache/hosted/pub.dartlang.org/firebase_storage-10.3.11",
      "packageUri": "lib/",
      "languageVersion": "2.16"
    },
    {
      "name": "firebase_storage_platform_interface",
      "rootUri": "file:///Users/zapram/Work/flutter/.pub-cache/hosted/pub.dartlang.org/firebase_storage_platform_interface-4.1.19",
      "packageUri": "lib/",
      "languageVersion": "2.16"
    },
    {
      "name": "firebase_storage_web",
      "rootUri": "file:///Users/zapram/Work/flutter/.pub-cache/hosted/pub.dartlang.org/firebase_storage_web-3.3.9",
      "packageUri": "lib/",
      "languageVersion": "2.16"
    },
    {
      "name": "flutter",
      "rootUri": "file:///Users/zapram/Work/flutter/packages/flutter",
      "packageUri": "lib/",
      "languageVersion": "2.17"
    },
    {
      "name": "flutter_bloc",
      "rootUri": "file:///Users/zapram/Work/flutter/.pub-cache/hosted/pub.dartlang.org/flutter_bloc-8.1.1",
      "packageUri": "lib/",
      "languageVersion": "2.12"
    },
    {
      "name": "flutter_lints",
      "rootUri": "file:///Users/zapram/Work/flutter/.pub-cache/hosted/pub.dartlang.org/flutter_lints-2.0.1",
      "packageUri": "lib/",
      "languageVersion": "2.17"
    },
    {
      "name": "flutter_plugin_android_lifecycle",
      "rootUri": "file:///Users/zapram/Work/flutter/.pub-cache/hosted/pub.dartlang.org/flutter_plugin_android_lifecycle-2.0.7",
      "packageUri": "lib/",
      "languageVersion": "2.12"
    },
    {
      "name": "flutter_svg",
      "rootUri": "file:///Users/zapram/Work/flutter/.pub-cache/hosted/pub.dartlang.org/flutter_svg-1.1.6",
      "packageUri": "lib/",
      "languageVersion": "2.17"
    },
    {
      "name": "flutter_test",
      "rootUri": "file:///Users/zapram/Work/flutter/packages/flutter_test",
      "packageUri": "lib/",
      "languageVersion": "2.17"
    },
    {
      "name": "flutter_web_plugins",
      "rootUri": "file:///Users/zapram/Work/flutter/packages/flutter_web_plugins",
      "packageUri": "lib/",
      "languageVersion": "2.17"
    },
    {
      "name": "font_awesome_flutter",
      "rootUri": "file:///Users/zapram/Work/flutter/.pub-cache/hosted/pub.dartlang.org/font_awesome_flutter-9.2.0",
      "packageUri": "lib/",
      "languageVersion": "2.12"
    },
    {
      "name": "google_sign_in",
      "rootUri": "file:///Users/zapram/Work/flutter/.pub-cache/hosted/pub.dartlang.org/google_sign_in-5.4.2",
      "packageUri": "lib/",
      "languageVersion": "2.14"
    },
    {
      "name": "google_sign_in_android",
      "rootUri": "file:///Users/zapram/Work/flutter/.pub-cache/hosted/pub.dartlang.org/google_sign_in_android-6.1.4",
      "packageUri": "lib/",
      "languageVersion": "2.14"
    },
    {
      "name": "google_sign_in_ios",
      "rootUri": "file:///Users/zapram/Work/flutter/.pub-cache/hosted/pub.dartlang.org/google_sign_in_ios-5.5.1",
      "packageUri": "lib/",
      "languageVersion": "2.14"
    },
    {
      "name": "google_sign_in_platform_interface",
      "rootUri": "file:///Users/zapram/Work/flutter/.pub-cache/hosted/pub.dartlang.org/google_sign_in_platform_interface-2.3.0",
      "packageUri": "lib/",
      "languageVersion": "2.12"
    },
    {
      "name": "google_sign_in_web",
      "rootUri": "file:///Users/zapram/Work/flutter/.pub-cache/hosted/pub.dartlang.org/google_sign_in_web-0.10.2",
      "packageUri": "lib/",
      "languageVersion": "2.12"
    },
    {
      "name": "http",
      "rootUri": "file:///Users/zapram/Work/flutter/.pub-cache/hosted/pub.dartlang.org/http-0.13.5",
      "packageUri": "lib/",
      "languageVersion": "2.14"
    },
    {
      "name": "http_parser",
      "rootUri": "file:///Users/zapram/Work/flutter/.pub-cache/hosted/pub.dartlang.org/http_parser-4.0.2",
      "packageUri": "lib/",
      "languageVersion": "2.12"
    },
    {
      "name": "image_picker",
      "rootUri": "file:///Users/zapram/Work/flutter/.pub-cache/hosted/pub.dartlang.org/image_picker-0.8.6",
      "packageUri": "lib/",
      "languageVersion": "2.14"
    },
    {
      "name": "image_picker_android",
      "rootUri": "file:///Users/zapram/Work/flutter/.pub-cache/hosted/pub.dartlang.org/image_picker_android-0.8.5+4",
      "packageUri": "lib/",
      "languageVersion": "2.14"
    },
    {
      "name": "image_picker_for_web",
      "rootUri": "file:///Users/zapram/Work/flutter/.pub-cache/hosted/pub.dartlang.org/image_picker_for_web-2.1.10",
      "packageUri": "lib/",
      "languageVersion": "2.12"
    },
    {
      "name": "image_picker_ios",
      "rootUri": "file:///Users/zapram/Work/flutter/.pub-cache/hosted/pub.dartlang.org/image_picker_ios-0.8.6+4",
      "packageUri": "lib/",
      "languageVersion": "2.14"
    },
    {
      "name": "image_picker_platform_interface",
      "rootUri": "file:///Users/zapram/Work/flutter/.pub-cache/hosted/pub.dartlang.org/image_picker_platform_interface-2.6.2",
      "packageUri": "lib/",
      "languageVersion": "2.12"
    },
    {
      "name": "intl",
      "rootUri": "file:///Users/zapram/Work/flutter/.pub-cache/hosted/pub.dartlang.org/intl-0.17.0",
      "packageUri": "lib/",
      "languageVersion": "2.12"
    },
    {
      "name": "introduction_screen",
      "rootUri": "file:///Users/zapram/Work/flutter/.pub-cache/hosted/pub.dartlang.org/introduction_screen-3.1.2",
      "packageUri": "lib/",
      "languageVersion": "2.12"
    },
    {
      "name": "js",
      "rootUri": "file:///Users/zapram/Work/flutter/.pub-cache/hosted/pub.dartlang.org/js-0.6.4",
      "packageUri": "lib/",
      "languageVersion": "2.16"
    },
    {
      "name": "lints",
      "rootUri": "file:///Users/zapram/Work/flutter/.pub-cache/hosted/pub.dartlang.org/lints-2.0.1",
      "packageUri": "lib/",
      "languageVersion": "2.17"
    },
    {
      "name": "matcher",
      "rootUri": "file:///Users/zapram/Work/flutter/.pub-cache/hosted/pub.dartlang.org/matcher-0.12.12",
      "packageUri": "lib/",
      "languageVersion": "2.12"
    },
    {
      "name": "material_color_utilities",
      "rootUri": "file:///Users/zapram/Work/flutter/.pub-cache/hosted/pub.dartlang.org/material_color_utilities-0.1.5",
      "packageUri": "lib/",
      "languageVersion": "2.13"
    },
    {
      "name": "meta",
      "rootUri": "file:///Users/zapram/Work/flutter/.pub-cache/hosted/pub.dartlang.org/meta-1.8.0",
      "packageUri": "lib/",
      "languageVersion": "2.12"
    },
    {
      "name": "nested",
      "rootUri": "file:///Users/zapram/Work/flutter/.pub-cache/hosted/pub.dartlang.org/nested-1.0.0",
      "packageUri": "lib/",
      "languageVersion": "2.12"
    },
    {
      "name": "path",
      "rootUri": "file:///Users/zapram/Work/flutter/.pub-cache/hosted/pub.dartlang.org/path-1.8.2",
      "packageUri": "lib/",
      "languageVersion": "2.12"
    },
    {
      "name": "path_drawing",
      "rootUri": "file:///Users/zapram/Work/flutter/.pub-cache/hosted/pub.dartlang.org/path_drawing-1.0.1",
      "packageUri": "lib/",
      "languageVersion": "2.12"
    },
    {
      "name": "path_parsing",
      "rootUri": "file:///Users/zapram/Work/flutter/.pub-cache/hosted/pub.dartlang.org/path_parsing-1.0.1",
      "packageUri": "lib/",
      "languageVersion": "2.12"
    },
    {
      "name": "path_provider_linux",
      "rootUri": "file:///Users/zapram/Work/flutter/.pub-cache/hosted/pub.dartlang.org/path_provider_linux-2.1.7",
      "packageUri": "lib/",
      "languageVersion": "2.12"
    },
    {
      "name": "path_provider_platform_interface",
      "rootUri": "file:///Users/zapram/Work/flutter/.pub-cache/hosted/pub.dartlang.org/path_provider_platform_interface-2.0.5",
      "packageUri": "lib/",
      "languageVersion": "2.12"
    },
    {
      "name": "path_provider_windows",
      "rootUri": "file:///Users/zapram/Work/flutter/.pub-cache/hosted/pub.dartlang.org/path_provider_windows-2.1.3",
      "packageUri": "lib/",
      "languageVersion": "2.17"
    },
    {
      "name": "petitparser",
      "rootUri": "file:///Users/zapram/Work/flutter/.pub-cache/hosted/pub.dartlang.org/petitparser-5.0.0",
      "packageUri": "lib/",
      "languageVersion": "2.16"
    },
    {
      "name": "platform",
      "rootUri": "file:///Users/zapram/Work/flutter/.pub-cache/hosted/pub.dartlang.org/platform-3.1.0",
      "packageUri": "lib/",
      "languageVersion": "2.12"
    },
    {
      "name": "plugin_platform_interface",
      "rootUri": "file:///Users/zapram/Work/flutter/.pub-cache/hosted/pub.dartlang.org/plugin_platform_interface-2.1.3",
      "packageUri": "lib/",
      "languageVersion": "2.12"
    },
    {
      "name": "process",
      "rootUri": "file:///Users/zapram/Work/flutter/.pub-cache/hosted/pub.dartlang.org/process-4.2.4",
      "packageUri": "lib/",
      "languageVersion": "2.14"
    },
    {
      "name": "provider",
      "rootUri": "file:///Users/zapram/Work/flutter/.pub-cache/hosted/pub.dartlang.org/provider-6.0.5",
      "packageUri": "lib/",
      "languageVersion": "2.12"
    },
    {
      "name": "quiver",
      "rootUri": "file:///Users/zapram/Work/flutter/.pub-cache/hosted/pub.dartlang.org/quiver-3.2.1",
      "packageUri": "lib/",
      "languageVersion": "2.17"
    },
    {
      "name": "shared_preferences",
      "rootUri": "file:///Users/zapram/Work/flutter/.pub-cache/hosted/pub.dartlang.org/shared_preferences-2.0.15",
      "packageUri": "lib/",
      "languageVersion": "2.14"
    },
    {
      "name": "shared_preferences_android",
      "rootUri": "file:///Users/zapram/Work/flutter/.pub-cache/hosted/pub.dartlang.org/shared_preferences_android-2.0.14",
      "packageUri": "lib/",
      "languageVersion": "2.14"
    },
    {
      "name": "shared_preferences_ios",
      "rootUri": "file:///Users/zapram/Work/flutter/.pub-cache/hosted/pub.dartlang.org/shared_preferences_ios-2.1.1",
      "packageUri": "lib/",
      "languageVersion": "2.14"
    },
    {
      "name": "shared_preferences_linux",
      "rootUri": "file:///Users/zapram/Work/flutter/.pub-cache/hosted/pub.dartlang.org/shared_preferences_linux-2.1.2",
      "packageUri": "lib/",
      "languageVersion": "2.12"
    },
    {
      "name": "shared_preferences_macos",
      "rootUri": "file:///Users/zapram/Work/flutter/.pub-cache/hosted/pub.dartlang.org/shared_preferences_macos-2.0.4",
      "packageUri": "lib/",
      "languageVersion": "2.12"
    },
    {
      "name": "shared_preferences_platform_interface",
      "rootUri": "file:///Users/zapram/Work/flutter/.pub-cache/hosted/pub.dartlang.org/shared_preferences_platform_interface-2.1.0",
      "packageUri": "lib/",
      "languageVersion": "2.12"
    },
    {
      "name": "shared_preferences_web",
      "rootUri": "file:///Users/zapram/Work/flutter/.pub-cache/hosted/pub.dartlang.org/shared_preferences_web-2.0.4",
      "packageUri": "lib/",
      "languageVersion": "2.12"
    },
    {
      "name": "shared_preferences_windows",
      "rootUri": "file:///Users/zapram/Work/flutter/.pub-cache/hosted/pub.dartlang.org/shared_preferences_windows-2.1.2",
      "packageUri": "lib/",
      "languageVersion": "2.12"
    },
    {
      "name": "sky_engine",
      "rootUri": "file:///Users/zapram/Work/flutter/bin/cache/pkg/sky_engine",
      "packageUri": "lib/",
      "languageVersion": "2.12"
    },
    {
      "name": "source_span",
      "rootUri": "file:///Users/zapram/Work/flutter/.pub-cache/hosted/pub.dartlang.org/source_span-1.9.0",
      "packageUri": "lib/",
      "languageVersion": "2.14"
    },
    {
      "name": "stack_trace",
      "rootUri": "file:///Users/zapram/Work/flutter/.pub-cache/hosted/pub.dartlang.org/stack_trace-1.10.0",
      "packageUri": "lib/",
      "languageVersion": "2.12"
    },
    {
      "name": "stream_channel",
      "rootUri": "file:///Users/zapram/Work/flutter/.pub-cache/hosted/pub.dartlang.org/stream_channel-2.1.0",
      "packageUri": "lib/",
      "languageVersion": "2.12"
    },
    {
      "name": "string_scanner",
      "rootUri": "file:///Users/zapram/Work/flutter/.pub-cache/hosted/pub.dartlang.org/string_scanner-1.1.1",
      "packageUri": "lib/",
      "languageVersion": "2.12"
    },
    {
      "name": "term_glyph",
      "rootUri": "file:///Users/zapram/Work/flutter/.pub-cache/hosted/pub.dartlang.org/term_glyph-1.2.1",
      "packageUri": "lib/",
      "languageVersion": "2.12"
    },
    {
      "name": "test_api",
      "rootUri": "file:///Users/zapram/Work/flutter/.pub-cache/hosted/pub.dartlang.org/test_api-0.4.12",
      "packageUri": "lib/",
      "languageVersion": "2.12"
    },
    {
      "name": "typed_data",
      "rootUri": "file:///Users/zapram/Work/flutter/.pub-cache/hosted/pub.dartlang.org/typed_data-1.3.1",
      "packageUri": "lib/",
      "languageVersion": "2.12"
    },
    {
      "name": "uuid",
      "rootUri": "file:///Users/zapram/Work/flutter/.pub-cache/hosted/pub.dartlang.org/uuid-3.0.7",
      "packageUri": "lib/",
      "languageVersion": "2.12"
    },
    {
      "name": "vector_math",
      "rootUri": "file:///Users/zapram/Work/flutter/.pub-cache/hosted/pub.dartlang.org/vector_math-2.1.2",
      "packageUri": "lib/",
      "languageVersion": "2.14"
    },
    {
      "name": "win32",
      "rootUri": "file:///Users/zapram/Work/flutter/.pub-cache/hosted/pub.dartlang.org/win32-3.1.3",
      "packageUri": "lib/",
      "languageVersion": "2.17"
    },
    {
      "name": "xdg_directories",
      "rootUri": "file:///Users/zapram/Work/flutter/.pub-cache/hosted/pub.dartlang.org/xdg_directories-0.2.0+2",
      "packageUri": "lib/",
      "languageVersion": "2.12"
    },
    {
      "name": "xml",
      "rootUri": "file:///Users/zapram/Work/flutter/.pub-cache/hosted/pub.dartlang.org/xml-6.1.0",
      "packageUri": "lib/",
      "languageVersion": "2.17"
    },
    {
      "name": "doctor_test",
      "rootUri": "../",
      "packageUri": "lib/",
      "languageVersion": "2.17"
    }
  ],
  "generated": "2022-12-29T08:07:29.023826Z",
  "generator": "pub",
  "generatorVersion": "2.18.6"
}
